Altera Tutorial/simulation/qsim/Altera_Tutorial.msim.vcd
$comment
	File created using the following command:
		vcd file Altera_Tutorial.msim.vcd -direction
$end
$date
	Sat Dec 17 17:05:04 2022
$end
$version
	ModelSim Version 10.5b
$end
$timescale
	1ps
$end

$scope module pwm_ctrl_example_vhd_vec_tst $end
$var wire 1 ! LwheelB $end
$var wire 1 " LwheelF $end
$var wire 1 # Motors [3] $end
$var wire 1 $ Motors [2] $end
$var wire 1 % Motors [1] $end
$var wire 1 & Motors [0] $end
$var wire 1 ' PWM_Motor_1KHz $end
$var wire 1 ( RwheelB $end
$var wire 1 ) RwheelF $end

$scope module i1 $end
$var wire 1 * gnd $end
$var wire 1 + vcc $end
$var wire 1 , unknown $end
$var wire 1 - devoe $end
$var wire 1 . devclrn $end
$var wire 1 / devpor $end
$var wire 1 0 ww_devoe $end
$var wire 1 1 ww_devclrn $end
$var wire 1 2 ww_devpor $end
$var wire 1 3 ww_RwheelF $end
$var wire 1 4 ww_PWM_Motor_1KHz $end
$var wire 1 5 ww_Motors [3] $end
$var wire 1 6 ww_Motors [2] $end
$var wire 1 7 ww_Motors [1] $end
$var wire 1 8 ww_Motors [0] $end
$var wire 1 9 ww_LwheelF $end
$var wire 1 : ww_LwheelB $end
$var wire 1 ; ww_RwheelB $end
$var wire 1 < \RwheelF~output_o\ $end
$var wire 1 = \LwheelF~output_o\ $end
$var wire 1 > \LwheelB~output_o\ $end
$var wire 1 ? \RwheelB~output_o\ $end
$var wire 1 @ \PWM_Motor_1KHz~input_o\ $end
$var wire 1 A \Motors[0]~input_o\ $end
$var wire 1 B \Motors[1]~input_o\ $end
$var wire 1 C \Motors[3]~input_o\ $end
$var wire 1 D \Motors[2]~input_o\ $end
$var wire 1 E \inst|RwheelF~0_combout\ $end
$var wire 1 F \inst|RwheelF~1_combout\ $end
$var wire 1 G \inst|LwheelB~0_combout\ $end
$var wire 1 H \inst|Equal5~0_combout\ $end
$var wire 1 I \inst|RwheelF~combout\ $end
$var wire 1 J \inst|LwheelF~0_combout\ $end
$var wire 1 K \inst|LwheelF~1_combout\ $end
$var wire 1 L \inst|LwheelB~1_combout\ $end
$var wire 1 M \inst|LwheelF~2_combout\ $end
$var wire 1 N \inst|LwheelF~combout\ $end
$var wire 1 O \inst|LwheelB~2_combout\ $end
$var wire 1 P \inst|LwheelB~3_combout\ $end
$var wire 1 Q \inst|LwheelB~combout\ $end
$var wire 1 R \inst|LwheelB~4_combout\ $end
$var wire 1 S \inst|RwheelB~0_combout\ $end
$var wire 1 T \inst|RwheelB~combout\ $end
$upscope $end
$upscope $end
$enddefinitions $end
#0
$dumpvars
0!
0"
0'
0(
0)
0*
1+
x,
1-
1.
1/
10
11
12
03
04
09
0:
0;
0<
0=
0>
0?
0@
0A
0B
0C
0D
0E
0F
1G
0H
0I
0J
0K
1L
0M
0N
0O
0P
0Q
0R
0S
0T
0#
0$
0%
0&
05
06
07
08
$end
#4000
1'
14
1@
#10000
1&
18
1A
0G
0L
#20000
0&
0'
1%
08
17
04
0@
1B
0A
#24000
1'
14
1@
#30000
1&
18
1A
#40000
0&
0'
0%
1$
08
07
16
04
0@
1D
0B
0A
1E
#44000
1'
14
1@
#50000
1&
18
1A
1F
1G
1J
1L
1K
1I
1<
1N
13
1=
1)
19
1"
#60000
0&
0'
1%
08
17
04
0@
1B
0A
1R
0F
0K
0N
0I
0<
0=
03
09
0)
0"
#64000
1'
14
1@
1K
1S
1T
1N
1=
1?
19
1;
1"
1(
#70000
1&
18
1A
0G
0J
0L
0R
0S
0K
#80000
0&
0'
0%
0$
1#
08
07
06
15
04
0@
1C
0D
0B
0A
#84000
1'
14
1@
#90000
1&
18
1A
1F
1G
1M
1O
1P
0N
0T
1I
1<
0?
0=
1Q
13
0;
09
1>
1)
0(
0"
1:
1!
#100000
0&
0'
1%
08
17
04
0@
1B
0A
1L
0M
1R
0F
0P
0Q
0I
0<
0>
03
0:
0)
0!
#104000
1'
14
1@
1P
1S
1T
1Q
1>
1?
1:
1;
1!
1(
#110000
1&
18
1A
0G
0L
0O
0R
0S
0P
#120000
0&
0'
0%
1$
08
07
16
04
0@
1D
0B
0A
0E
#124000
1'
14
1@
#130000
1&
18
1A
#140000
0&
0'
1%
08
17
04
0@
1B
0A
#144000
1'
14
1@
#150000
1&
18
1A
1H
1M
0T
0Q
0>
0?
0:
0;
0!
0(
#160000
0&
0'
0%
0$
0#
08
07
06
05
04
0@
0C
0D
0B
0A
1G
0H
1L
0M
#164000
1'
14
1@
#170000
1&
18
1A
0G
0L
#180000
0&
0'
1%
08
17
04
0@
1B
0A
#184000
1'
14
1@
#190000
1&
18
1A
#200000
0&
0'
0%
1$
08
07
16
04
0@
1D
0B
0A
1E
#204000
1'
14
1@
#210000
1&
18
1A
1F
1G
1J
1L
1K
1I
1<
1N
13
1=
1)
19
1"
#220000
0&
0'
1%
08
17
04
0@
1B
0A
1R
0F
0K
0N
0I
0<
0=
03
09
0)
0"
#224000
1'
14
1@
1K
1S
1T
1N
1=
1?
19
1;
1"
1(
#230000
1&
18
1A
0G
0J
0L
0R
0S
0K
#240000
0&
0'
0%
0$
1#
08
07
06
15
04
0@
1C
0D
0B
0A
#244000
1'
14
1@
#250000
1&
18
1A
1F
1G
1M
1O
1P
0N
0T
1I
1<
0?
0=
1Q
13
0;
09
1>
1)
0(
0"
1:
1!
#260000
0&
0'
1%
08
17
04
0@
1B
0A
1L
0M
1R
0F
0P
0Q
0I
0<
0>
03
0:
0)
0!
#264000
1'
14
1@
1P
1S
1T
1Q
1>
1?
1:
1;
1!
1(
#270000
1&
18
1A
0G
0L
0O
0R
0S
0P
#280000
0&
0'
0%
1$
08
07
16
04
0@
1D
0B
0A
0E
#284000
1'
14
1@
#290000
1&
18
1A
#300000
0&
0'
1%
08
17
04
0@
1B
0A
#304000
1'
14
1@
#310000
1&
18
1A
1H
1M
0T
0Q
0>
0?
0:
0;
0!
0(
#320000
0&
0'
0%
0$
0#
08
07
06
05
04
0@
0C
0D
0B
0A
1G
0H
1L
0M
#324000
1'
14
1@
#330000
1&
18
1A
0G
0L
#340000
0&
0'
1%
08
17
04
0@
1B
0A
#344000
1'
14
1@
#350000
1&
18
1A
#360000
0&
0'
0%
1$
08
07
16
04
0@
1D
0B
0A
1E
#364000
1'
14
1@
#370000
1&
18
1A
1F
1G
1J
1L
1K
1I
1<
1N
13
1=
1)
19
1"
#380000
0&
0'
1%
08
17
04
0@
1B
0A
1R
0F
0K
0N
0I
0<
0=
03
09
0)
0"
#384000
1'
14
1@
1K
1S
1T
1N
1=
1?
19
1;
1"
1(
#390000
1&
18
1A
0G
0J
0L
0R
0S
0K
#400000
0&
0'
0%
0$
1#
08
07
06
15
04
0@
1C
0D
0B
0A
#404000
1'
14
1@
#410000
1&
18
1A
1F
1G
1M
1O
1P
0N
0T
1I
1<
0?
0=
1Q
13
0;
09
1>
1)
0(
0"
1:
1!
#420000
0&
0'
1%
08
17
04
0@
1B
0A
1L
0M
1R
0F
0P
0Q
0I
0<
0>
03
0:
0)
0!
#424000
1'
14
1@
1P
1S
1T
1Q
1>
1?
1:
1;
1!
1(
#430000
1&
18
1A
0G
0L
0O
0R
0S
0P
#440000
0&
0'
0%
1$
08
07
16
04
0@
1D
0B
0A
0E
#444000
1'
14
1@
#450000
1&
18
1A
#460000
0&
0'
1%
08
17
04
0@
1B
0A
#464000
1'
14
1@
#470000
1&
18
1A
1H
1M
0T
0Q
0>
0?
0:
0;
0!
0(
#480000
0&
0'
0%
0$
0#
08
07
06
05
04
0@
0C
0D
0B
0A
1G
0H
1L
0M
#484000
1'
14
1@
#490000
1&
18
1A
0G
0L
#500000
0&
0'
1%
08
17
04
0@
1B
0A
#504000
1'
14
1@
#510000
1&
18
1A
#520000
0&
0'
0%
1$
08
07
16
04
0@
1D
0B
0A
1E
#524000
1'
14
1@
#530000
1&
18
1A
1F
1G
1J
1L
1K
1I
1<
1N
13
1=
1)
19
1"
#540000
0&
0'
1%
08
17
04
0@
1B
0A
1R
0F
0K
0N
0I
0<
0=
03
09
0)
0"
#544000
1'
14
1@
1K
1S
1T
1N
1=
1?
19
1;
1"
1(
#550000
1&
18
1A
0G
0J
0L
0R
0S
0K
#560000
0&
0'
0%
0$
1#
08
07
06
15
04
0@
1C
0D
0B
0A
#564000
1'
14
1@
#570000
1&
18
1A
1F
1G
1M
1O
1P
0N
0T
1I
1<
0?
0=
1Q
13
0;
09
1>
1)
0(
0"
1:
1!
#580000
0&
0'
1%
08
17
04
0@
1B
0A
1L
0M
1R
0F
0P
0Q
0I
0<
0>
03
0:
0)
0!
#584000
1'
14
1@
1P
1S
1T
1Q
1>
1?
1:
1;
1!
1(
#590000
1&
18
1A
0G
0L
0O
0R
0S
0P
#600000
0&
0'
0%
1$
08
07
16
04
0@
1D
0B
0A
0E
#604000
1'
14
1@
#610000
1&
18
1A
#620000
0&
0'
1%
08
17
04
0@
1B
0A
#624000
1'
14
1@
#630000
1&
18
1A
1H
1M
0T
0Q
0>
0?
0:
0;
0!
0(
#640000
0&
0'
0%
0$
0#
08
07
06
05
04
0@
0C
0D
0B
0A
1G
0H
1L
0M
#644000
1'
14
1@
#650000
1&
18
1A
0G
0L
#660000
0&
0'
1%
08
17
04
0@
1B
0A
#664000
1'
14
1@
#670000
1&
18
1A
#680000
0&
0'
0%
1$
08
07
16
04
0@
1D
0B
0A
1E
#684000
1'
14
1@
#690000
1&
18
1A
1F
1G
1J
1L
1K
1I
1<
1N
13
1=
1)
19
1"
#700000
0&
0'
1%
08
17
04
0@
1B
0A
1R
0F
0K
0N
0I
0<
0=
03
09
0)
0"
#704000
1'
14
1@
1K
1S
1T
1N
1=
1?
19
1;
1"
1(
#710000
1&
18
1A
0G
0J
0L
0R
0S
0K
#720000
0&
0'
0%
0$
1#
08
07
06
15
04
0@
1C
0D
0B
0A
#724000
1'
14
1@
#730000
1&
18
1A
1F
1G
1M
1O
1P
0N
0T
1I
1<
0?
0=
1Q
13
0;
09
1>
1)
0(
0"
1:
1!
#740000
0&
0'
1%
08
17
04
0@
1B
0A
1L
0M
1R
0F
0P
0Q
0I
0<
0>
03
0:
0)
0!
#744000
1'
14
1@
1P
1S
1T
1Q
1>
1?
1:
1;
1!
1(
#750000
1&
18
1A
0G
0L
0O
0R
0S
0P
#760000
0&
0'
0%
1$
08
07
16
04
0@
1D
0B
0A
0E
#764000
1'
14
1@
#770000
1&
18
1A
#780000
0&
0'
1%
08
17
04
0@
1B
0A
#784000
1'
14
1@
#790000
1&
18
1A
1H
1M
0T
0Q
0>
0?
0:
0;
0!
0(
#800000
0&
0'
0%
0$
0#
08
07
06
05
04
0@
0C
0D
0B
0A
1G
0H
1L
0M
#804000
1'
14
1@
#810000
1&
18
1A
0G
0L
#820000
0&
0'
1%
08
17
04
0@
1B
0A
#824000
1'
14
1@
#830000
1&
18
1A
#840000
0&
0'
0%
1$
08
07
16
04
0@
1D
0B
0A
1E
#844000
1'
14
1@
#850000
1&
18
1A
1F
1G
1J
1L
1K
1I
1<
1N
13
1=
1)
19
1"
#860000
0&
0'
1%
08
17
04
0@
1B
0A
1R
0F
0K
0N
0I
0<
0=
03
09
0)
0"
#864000
1'
14
1@
1K
1S
1T
1N
1=
1?
19
1;
1"
1(
#870000
1&
18
1A
0G
0J
0L
0R
0S
0K
#880000
0&
0'
0%
0$
1#
08
07
06
15
04
0@
1C
0D
0B
0A
#884000
1'
14
1@
#890000
1&
18
1A
1F
1G
1M
1O
1P
0N
0T
1I
1<
0?
0=
1Q
13
0;
09
1>
1)
0(
0"
1:
1!
#900000
0&
0'
1%
08
17
04
0@
1B
0A
1L
0M
1R
0F
0P
0Q
0I
0<
0>
03
0:
0)
0!
#904000
1'
14
1@
1P
1S
1T
1Q
1>
1?
1:
1;
1!
1(
#910000
1&
18
1A
0G
0L
0O
0R
0S
0P
#920000
0&
0'
0%
1$
08
07
16
04
0@
1D
0B
0A
0E
#924000
1'
14
1@
#930000
1&
18
1A
#940000
0&
0'
1%
08
17
04
0@
1B
0A
#944000
1'
14
1@
#950000
1&
18
1A
1H
1M
0T
0Q
0>
0?
0:
0;
0!
0(
#960000
0&
0'
0%
0$
0#
08
07
06
05
04
0@
0C
0D
0B
0A
1G
0H
1L
0M
#964000
1'
14
1@
#970000
1&
18
1A
0G
0L
#980000
0&
0'
1%
08
17
04
0@
1B
0A
#984000
1'
14
1@
#990000
1&
18
1A
