Altera Tutorial/simulation/qsim/Altera_Tutorial.msim.vcd
$comment
	File created using the following command:
		vcd file Altera_Tutorial.msim.vcd -direction
$end
$date
	Sun Mar 26 16:31:15 2023
$end
$version
	ModelSim Version 10.5b
$end
$timescale
	1ps
$end

$scope module led_vhd_vec_tst $end
$var wire 1 ! clk $end
$var wire 1 " outp $end

$scope module i1 $end
$var wire 1 # gnd $end
$var wire 1 $ vcc $end
$var wire 1 % unknown $end
$var wire 1 & devoe $end
$var wire 1 ' devclrn $end
$var wire 1 ( devpor $end
$var wire 1 ) ww_devoe $end
$var wire 1 * ww_devclrn $end
$var wire 1 + ww_devpor $end
$var wire 1 , ww_clk $end
$var wire 1 - ww_outp $end
$var wire 1 . \outp~output_o\ $end
$var wire 1 / \clk~input_o\ $end
$var wire 1 0 \Add0~0_combout\ $end
$var wire 1 1 \Add0~1\ $end
$var wire 1 2 \Add0~2_combout\ $end
$var wire 1 3 \Add0~3\ $end
$var wire 1 4 \Add0~4_combout\ $end
$var wire 1 5 \Add0~5\ $end
$var wire 1 6 \Add0~6_combout\ $end
$var wire 1 7 \Add0~7\ $end
$var wire 1 8 \Add0~8_combout\ $end
$var wire 1 9 \Add0~9\ $end
$var wire 1 : \Add0~10_combout\ $end
$var wire 1 ; \Add0~11\ $end
$var wire 1 < \Add0~12_combout\ $end
$var wire 1 = \Add0~13\ $end
$var wire 1 > \Add0~14_combout\ $end
$var wire 1 ? \count~5_combout\ $end
$var wire 1 @ \Add0~15\ $end
$var wire 1 A \Add0~16_combout\ $end
$var wire 1 B \Add0~17\ $end
$var wire 1 C \Add0~18_combout\ $end
$var wire 1 D \Add0~19\ $end
$var wire 1 E \Add0~20_combout\ $end
$var wire 1 F \Add0~21\ $end
$var wire 1 G \Add0~22_combout\ $end
$var wire 1 H \Add0~23\ $end
$var wire 1 I \Add0~24_combout\ $end
$var wire 1 J \count~4_combout\ $end
$var wire 1 K \Add0~25\ $end
$var wire 1 L \Add0~26_combout\ $end
$var wire 1 M \count~3_combout\ $end
$var wire 1 N \Add0~27\ $end
$var wire 1 O \Add0~28_combout\ $end
$var wire 1 P \count~2_combout\ $end
$var wire 1 Q \Add0~29\ $end
$var wire 1 R \Add0~30_combout\ $end
$var wire 1 S \count~1_combout\ $end
$var wire 1 T \Add0~31\ $end
$var wire 1 U \Add0~32_combout\ $end
$var wire 1 V \Add0~33\ $end
$var wire 1 W \Add0~34_combout\ $end
$var wire 1 X \count~0_combout\ $end
$var wire 1 Y \Equal0~0_combout\ $end
$var wire 1 Z \Equal0~1_combout\ $end
$var wire 1 [ \Equal0~2_combout\ $end
$var wire 1 \ \Equal0~3_combout\ $end
$var wire 1 ] \Equal0~4_combout\ $end
$var wire 1 ^ \Add0~35\ $end
$var wire 1 _ \Add0~36_combout\ $end
$var wire 1 ` \Add0~37\ $end
$var wire 1 a \Add0~38_combout\ $end
$var wire 1 b \count~6_combout\ $end
$var wire 1 c \Equal0~5_combout\ $end
$var wire 1 d \Add0~39\ $end
$var wire 1 e \Add0~40_combout\ $end
$var wire 1 f \count~7_combout\ $end
$var wire 1 g \Add0~41\ $end
$var wire 1 h \Add0~42_combout\ $end
$var wire 1 i \count~8_combout\ $end
$var wire 1 j \Add0~43\ $end
$var wire 1 k \Add0~44_combout\ $end
$var wire 1 l \count~9_combout\ $end
$var wire 1 m \Add0~45\ $end
$var wire 1 n \Add0~46_combout\ $end
$var wire 1 o \count~10_combout\ $end
$var wire 1 p \Equal0~6_combout\ $end
$var wire 1 q \Add0~47\ $end
$var wire 1 r \Add0~48_combout\ $end
$var wire 1 s \Add0~49\ $end
$var wire 1 t \Add0~50_combout\ $end
$var wire 1 u \count~11_combout\ $end
$var wire 1 v \Equal0~7_combout\ $end
$var wire 1 w \Equal0~8_combout\ $end
$var wire 1 x \outp~0_combout\ $end
$var wire 1 y \outp~reg0_q\ $end
$var wire 1 z count [25] $end
$var wire 1 { count [24] $end
$var wire 1 | count [23] $end
$var wire 1 } count [22] $end
$var wire 1 ~ count [21] $end
$var wire 1 !! count [20] $end
$var wire 1 "! count [19] $end
$var wire 1 #! count [18] $end
$var wire 1 $! count [17] $end
$var wire 1 %! count [16] $end
$var wire 1 &! count [15] $end
$var wire 1 '! count [14] $end
$var wire 1 (! count [13] $end
$var wire 1 )! count [12] $end
$var wire 1 *! count [11] $end
$var wire 1 +! count [10] $end
$var wire 1 ,! count [9] $end
$var wire 1 -! count [8] $end
$var wire 1 .! count [7] $end
$var wire 1 /! count [6] $end
$var wire 1 0! count [5] $end
$var wire 1 1! count [4] $end
$var wire 1 2! count [3] $end
$var wire 1 3! count [2] $end
$var wire 1 4! count [1] $end
$var wire 1 5! count [0] $end
$upscope $end
$upscope $end
$enddefinitions $end
#0
$dumpvars
0!
0"
0#
1$
x%
1&
1'
1(
1)
1*
1+
0,
0-
0.
0/
10
01
02
13
04
05
06
17
08
09
0:
1;
0<
0=
0>
0?
1@
0A
0B
0C
1D
0E
0F
0G
1H
0I
0J
0K
0L
0M
1N
0O
0P
0Q
0R
0S
1T
0U
0V
0W
0X
0Y
0Z
0[
0\
0]
1^
0_
0`
0a
0b
0c
1d
0e
0f
0g
0h
0i
1j
0k
0l
0m
0n
0o
0p
1q
0r
0s
0t
0u
0v
0w
0x
0y
0z
0{
0|
0}
0~
0!!
0"!
0#!
0$!
0%!
0&!
0'!
0(!
0)!
0*!
0+!
0,!
0-!
0.!
0/!
00!
01!
02!
03!
04!
05!
$end
#50000
1!
1,
1/
15!
00
11
12
#100000
0!
0,
0/
#150000
1!
1,
1/
05!
14!
02
03
10
01
12
13
14
04
#200000
0!
0,
0/
#250000
1!
1,
1/
15!
00
11
02
03
14
#300000
0!
0,
0/
#350000
1!
1,
1/
05!
04!
13!
04
15
12
13
10
01
02
14
05
16
06
#400000
0!
0,
0/
#450000
1!
1,
1/
15!
00
11
12
#500000
0!
0,
0/
#550000
1!
1,
1/
05!
14!
02
03
10
01
12
13
04
15
16
14
05
06
#600000
0!
0,
0/
#650000
1!
1,
1/
15!
00
11
02
03
04
15
16
#700000
0!
0,
0/
#750000
1!
1,
1/
05!
04!
03!
12!
06
07
14
05
12
13
10
01
02
04
16
17
18
08
#800000
0!
0,
0/
#850000
1!
1,
1/
15!
00
11
12
#900000
0!
0,
0/
#950000
1!
1,
1/
05!
14!
02
03
10
01
12
13
14
04
#1000000
0!
0,
0/
#1050000
1!
1,
1/
15!
00
11
02
03
14
#1100000
0!
0,
0/
#1150000
1!
1,
1/
05!
04!
13!
04
15
12
13
10
01
02
14
05
06
07
18
16
17
08
#1200000
0!
0,
0/
#1250000
1!
1,
1/
15!
00
11
12
#1300000
0!
0,
0/
#1350000
1!
1,
1/
05!
14!
02
03
10
01
12
13
04
15
06
07
14
05
16
17
18
08
#1400000
0!
0,
0/
#1450000
1!
1,
1/
15!
00
11
02
03
04
15
06
07
18
#1500000
0!
0,
0/
#1550000
1!
1,
1/
05!
04!
03!
02!
11!
08
19
16
17
14
05
12
13
10
01
02
04
06
18
09
1:
0:
#1600000
0!
0,
0/
#1650000
1!
1,
1/
15!
00
11
12
#1700000
0!
0,
0/
#1750000
1!
1,
1/
05!
14!
02
03
10
01
12
13
14
04
#1800000
0!
0,
0/
#1850000
1!
1,
1/
15!
00
11
02
03
14
#1900000
0!
0,
0/
#1950000
1!
1,
1/
05!
04!
13!
04
15
12
13
10
01
02
14
05
16
06
#2000000
0!
0,
0/
#2050000
1!
1,
1/
15!
00
11
12
#2100000
0!
0,
0/
#2150000
1!
1,
1/
05!
14!
02
03
10
01
12
13
04
15
16
14
05
06
#2200000
0!
0,
0/
#2250000
1!
1,
1/
15!
00
11
02
03
04
15
16
#2300000
0!
0,
0/
#2350000
1!
1,
1/
05!
04!
03!
12!
06
07
14
05
12
13
10
01
02
04
16
17
08
19
1:
18
09
0:
#2400000
0!
0,
0/
#2450000
1!
1,
1/
15!
00
11
12
#2500000
0!
0,
0/
#2550000
1!
1,
1/
05!
14!
02
03
10
01
12
13
14
04
#2600000
0!
0,
0/
#2650000
1!
1,
1/
15!
00
11
02
03
14
#2700000
0!
0,
0/
#2750000
1!
1,
1/
05!
04!
13!
04
15
12
13
10
01
02
14
05
06
07
08
19
16
17
18
09
1:
0:
#2800000
0!
0,
0/
#2850000
1!
1,
1/
15!
00
11
12
#2900000
0!
0,
0/
#2950000
1!
1,
1/
05!
14!
02
03
10
01
12
13
04
15
06
07
14
05
16
17
08
19
1:
18
09
0:
#3000000
0!
0,
0/
#3050000
1!
1,
1/
15!
00
11
02
03
04
15
06
07
08
19
1:
#3100000
0!
0,
0/
#3150000
1!
1,
1/
05!
04!
03!
02!
01!
10!
0:
0;
18
09
16
17
14
05
12
13
10
01
02
04
06
08
1:
1;
1<
0<
#3200000
0!
0,
0/
#3250000
1!
1,
1/
15!
00
11
12
#3300000
0!
0,
0/
#3350000
1!
1,
1/
05!
14!
02
03
10
01
12
13
14
04
#3400000
0!
0,
0/
#3450000
1!
1,
1/
15!
00
11
02
03
14
#3500000
0!
0,
0/
#3550000
1!
1,
1/
05!
04!
13!
04
15
12
13
10
01
02
14
05
16
06
#3600000
0!
0,
0/
#3650000
1!
1,
1/
15!
00
11
12
#3700000
0!
0,
0/
#3750000
1!
1,
1/
05!
14!
02
03
10
01
12
13
04
15
16
14
05
06
#3800000
0!
0,
0/
#3850000
1!
1,
1/
15!
00
11
02
03
04
15
16
#3900000
0!
0,
0/
#3950000
1!
1,
1/
05!
04!
03!
12!
06
07
14
05
12
13
10
01
02
04
16
17
18
08
#4000000
0!
0,
0/
#4050000
1!
1,
1/
15!
00
11
12
#4100000
0!
0,
0/
#4150000
1!
1,
1/
05!
14!
02
03
10
01
12
13
14
04
#4200000
0!
0,
0/
#4250000
1!
1,
1/
15!
00
11
02
03
14
#4300000
0!
0,
0/
#4350000
1!
1,
1/
05!
04!
13!
04
15
12
13
10
01
02
14
05
06
07
18
16
17
08
#4400000
0!
0,
0/
#4450000
1!
1,
1/
15!
00
11
12
#4500000
0!
0,
0/
#4550000
1!
1,
1/
05!
14!
02
03
10
01
12
13
04
15
06
07
14
05
16
17
18
08
#4600000
0!
0,
0/
#4650000
1!
1,
1/
15!
00
11
02
03
04
15
06
07
18
#4700000
0!
0,
0/
#4750000
1!
1,
1/
05!
04!
03!
02!
11!
08
19
16
17
14
05
12
13
10
01
02
04
06
18
09
0:
0;
1<
1:
1;
0<
#4800000
0!
0,
0/
#4850000
1!
1,
1/
15!
00
11
12
#4900000
0!
0,
0/
#4950000
1!
1,
1/
05!
14!
02
03
10
01
12
13
14
04
#5000000
0!
0,
0/
#5050000
1!
1,
1/
15!
00
11
02
03
14
#5100000
0!
0,
0/
#5150000
1!
1,
1/
05!
04!
13!
04
15
12
13
10
01
02
14
05
16
06
#5200000
0!
0,
0/
#5250000
1!
1,
1/
15!
00
11
12
#5300000
0!
0,
0/
#5350000
1!
1,
1/
05!
14!
02
03
10
01
12
13
04
15
16
14
05
06
#5400000
0!
0,
0/
#5450000
1!
1,
1/
15!
00
11
02
03
04
15
16
#5500000
0!
0,
0/
#5550000
1!
1,
1/
05!
04!
03!
12!
06
07
14
05
12
13
10
01
02
04
16
17
08
19
0:
0;
18
09
1:
1;
1<
0<
#5600000
0!
0,
0/
#5650000
1!
1,
1/
15!
00
11
12
#5700000
0!
0,
0/
#5750000
1!
1,
1/
05!
14!
02
03
10
01
12
13
14
04
#5800000
0!
0,
0/
#5850000
1!
1,
1/
15!
00
11
02
03
14
#5900000
0!
0,
0/
#5950000
1!
1,
1/
05!
04!
13!
04
15
1\
12
13
10
01
02
14
05
06
07
08
19
16
17
18
09
0:
0;
1<
1:
1;
0<
#6000000
0!
0,
0/
#6050000
1!
1,
1/
15!
00
11
12
#6100000
0!
0,
0/
#6150000
1!
1,
1/
05!
14!
02
03
10
01
12
13
04
15
06
07
14
05
16
17
08
19
0:
0;
18
09
1:
1;
1<
0<
#6200000
0!
0,
0/
#6250000
1!
1,
1/
15!
00
11
02
03
04
15
06
07
08
19
0:
0;
1<
#6300000
0!
0,
0/
#6350000
1!
1,
1/
05!
04!
03!
02!
01!
00!
1/!
0<
1=
1[
1:
1;
18
09
16
17
14
05
0\
12
13
10
01
02
04
06
08
0:
1<
0=
1>
1?
0>
0?
#6400000
0!
0,
0/
#6450000
1!
1,
1/
15!
00
11
12
#6500000
0!
0,
0/
#6550000
1!
1,
1/
05!
14!
02
03
10
01
12
13
14
04
#6600000
0!
0,
0/
#6650000
1!
1,
1/
15!
00
11
02
03
14
#6700000
0!
0,
0/
#6750000
1!
1,
1/
05!
04!
13!
04
15
12
13
10
01
02
14
05
16
06
#6800000
0!
0,
0/
#6850000
1!
1,
1/
15!
00
11
12
#6900000
0!
0,
0/
#6950000
1!
1,
1/
05!
14!
02
03
10
01
12
13
04
15
16
14
05
06
#7000000
0!
0,
0/
#7050000
1!
1,
1/
15!
00
11
02
03
04
15
16
#7100000
0!
0,
0/
#7150000
1!
1,
1/
05!
04!
03!
12!
06
07
14
05
12
13
10
01
02
04
16
17
18
08
#7200000
0!
0,
0/
#7250000
1!
1,
1/
15!
00
11
12
#7300000
0!
0,
0/
#7350000
1!
1,
1/
05!
14!
02
03
10
01
12
13
14
04
#7400000
0!
0,
0/
#7450000
1!
1,
1/
15!
00
11
02
03
14
#7500000
0!
0,
0/
#7550000
1!
1,
1/
05!
04!
13!
04
15
12
13
10
01
02
14
05
06
07
18
16
17
08
#7600000
0!
0,
0/
#7650000
1!
1,
1/
15!
00
11
12
#7700000
0!
0,
0/
#7750000
1!
1,
1/
05!
14!
02
03
10
01
12
13
04
15
06
07
14
05
16
17
18
08
#7800000
0!
0,
0/
#7850000
1!
1,
1/
15!
00
11
02
03
04
15
06
07
18
#7900000
0!
0,
0/
#7950000
1!
1,
1/
05!
04!
03!
02!
11!
08
19
16
17
14
05
12
13
10
01
02
04
06
18
09
1:
0:
#8000000
0!
0,
0/
#8050000
1!
1,
1/
15!
00
11
12
#8100000
0!
0,
0/
#8150000
1!
1,
1/
05!
14!
02
03
10
01
12
13
14
04
#8200000
0!
0,
0/
#8250000
1!
1,
1/
15!
00
11
02
03
14
#8300000
0!
0,
0/
#8350000
1!
1,
1/
05!
04!
13!
04
15
12
13
10
01
02
14
05
16
06
#8400000
0!
0,
0/
#8450000
1!
1,
1/
15!
00
11
12
#8500000
0!
0,
0/
#8550000
1!
1,
1/
05!
14!
02
03
10
01
12
13
04
15
16
14
05
06
#8600000
0!
0,
0/
#8650000
1!
1,
1/
15!
00
11
02
03
04
15
16
#8700000
0!
0,
0/
#8750000
1!
1,
1/
05!
04!
03!
12!
06
07
14
05
12
13
10
01
02
04
16
17
08
19
1:
18
09
0:
#8800000
0!
0,
0/
#8850000
1!
1,
1/
15!
00
11
12
#8900000
0!
0,
0/
#8950000
1!
1,
1/
05!
14!
02
03
10
01
12
13
14
04
#9000000
0!
0,
0/
#9050000
1!
1,
1/
15!
00
11
02
03
14
#9100000
0!
0,
0/
#9150000
1!
1,
1/
05!
04!
13!
04
15
12
13
10
01
02
14
05
06
07
08
19
16
17
18
09
1:
0:
#9200000
0!
0,
0/
#9250000
1!
1,
1/
15!
00
11
12
#9300000
0!
0,
0/
#9350000
1!
1,
1/
05!
14!
02
03
10
01
12
13
04
15
06
07
14
05
16
17
08
19
1:
18
09
0:
#9400000
0!
0,
0/
#9450000
1!
1,
1/
15!
00
11
02
03
04
15
06
07
08
19
1:
#9500000
0!
0,
0/
#9550000
1!
1,
1/
05!
04!
03!
02!
01!
10!
0:
0;
18
09
16
17
14
05
12
13
10
01
02
04
06
08
1:
1;
0<
1=
1>
1<
0=
0>
1?
0?
#9600000
0!
0,
0/
#9650000
1!
1,
1/
15!
00
11
12
#9700000
0!
0,
0/
#9750000
1!
1,
1/
05!
14!
02
03
10
01
12
13
14
04
#9800000
0!
0,
0/
#9850000
1!
1,
1/
15!
00
11
02
03
14
#9900000
0!
0,
0/
#9950000
1!
1,
1/
05!
04!
13!
04
15
12
13
10
01
02
14
05
16
06
#10000000
0!
0,
0/
#10050000
1!
1,
1/
15!
00
11
12
#10100000
0!
0,
0/
#10150000
1!
1,
1/
05!
14!
02
03
10
01
12
13
04
15
16
14
05
06
#10200000
0!
0,
0/
#10250000
1!
1,
1/
15!
00
11
02
03
04
15
16
#10300000
0!
0,
0/
#10350000
1!
1,
1/
05!
04!
03!
12!
06
07
14
05
12
13
10
01
02
04
16
17
18
08
#10400000
0!
0,
0/
#10450000
1!
1,
1/
15!
00
11
12
#10500000
0!
0,
0/
#10550000
1!
1,
1/
05!
14!
02
03
10
01
12
13
14
04
#10600000
0!
0,
0/
#10650000
1!
1,
1/
15!
00
11
02
03
14
#10700000
0!
0,
0/
#10750000
1!
1,
1/
05!
04!
13!
04
15
12
13
10
01
02
14
05
06
07
18
16
17
08
#10800000
0!
0,
0/
#10850000
1!
1,
1/
15!
00
11
12
#10900000
0!
0,
0/
#10950000
1!
1,
1/
05!
14!
02
03
10
01
12
13
04
15
06
07
14
05
16
17
18
08
#11000000
0!
0,
0/
#11050000
1!
1,
1/
15!
00
11
02
03
04
15
06
07
18
#11100000
0!
0,
0/
#11150000
1!
1,
1/
05!
04!
03!
02!
11!
08
19
16
17
14
05
12
13
10
01
02
04
06
18
09
0:
0;
0<
1=
1:
1;
1<
0=
1>
1?
0>
0?
#11200000
0!
0,
0/
#11250000
1!
1,
1/
15!
00
11
12
#11300000
0!
0,
0/
#11350000
1!
1,
1/
05!
14!
02
03
10
01
12
13
14
04
#11400000
0!
0,
0/
#11450000
1!
1,
1/
15!
00
11
02
03
14
#11500000
0!
0,
0/
#11550000
1!
1,
1/
05!
04!
13!
04
15
12
13
10
01
02
14
05
16
06
#11600000
0!
0,
0/
#11650000
1!
1,
1/
15!
00
11
12
#11700000
0!
0,
0/
#11750000
1!
1,
1/
05!
14!
02
03
10
01
12
13
04
15
16
14
05
06
#11800000
0!
0,
0/
#11850000
1!
1,
1/
15!
00
11
02
03
04
15
16
#11900000
0!
0,
0/
#11950000
1!
1,
1/
05!
04!
03!
12!
06
07
14
05
12
13
10
01
02
04
16
17
08
19
0:
0;
18
09
1:
1;
0<
1=
1>
1<
0=
0>
1?
0?
#12000000
0!
0,
0/
#12050000
1!
1,
1/
15!
00
11
12
#12100000
0!
0,
0/
#12150000
1!
1,
1/
05!
14!
02
03
10
01
12
13
14
04
#12200000
0!
0,
0/
#12250000
1!
1,
1/
15!
00
11
02
03
14
#12300000
0!
0,
0/
#12350000
1!
1,
1/
05!
04!
13!
04
15
1\
12
13
10
01
02
14
05
06
07
08
19
16
17
18
09
0:
0;
0<
1=
1:
1;
1<
0=
1>
1?
0>
0?
#12400000
0!
0,
0/
#12450000
1!
1,
1/
15!
00
11
12
#12500000
0!
0,
0/
#12550000
1!
1,
1/
05!
14!
02
03
10
01
12
13
04
15
06
07
14
05
16
17
08
19
0:
0;
18
09
1:
1;
0<
1=
1>
1<
0=
0>
1?
0?
#12600000
0!
0,
0/
#12650000
1!
1,
1/
15!
00
11
02
03
04
15
06
07
08
19
0:
0;
0<
1=
1>
1?
#12700000
0!
0,
0/
#12750000
1!
1,
1/
05!
04!
03!
02!
01!
00!
0/!
1.!
0>
0@
1<
0=
0[
1:
1;
18
09
16
17
14
05
0\
12
13
10
01
02
04
06
08
0:
0<
1>
1@
1A
0?
0A
1?
#12800000
0!
0,
0/
#12850000
1!
1,
1/
15!
00
11
12
#12900000
0!
0,
0/
#12950000
1!
1,
1/
05!
14!
02
03
10
01
12
13
14
04
#13000000
0!
0,
0/
#13050000
1!
1,
1/
15!
00
11
02
03
14
#13100000
0!
0,
0/
#13150000
1!
1,
1/
05!
04!
13!
04
15
12
13
10
01
02
14
05
16
06
#13200000
0!
0,
0/
#13250000
1!
1,
1/
15!
00
11
12
#13300000
0!
0,
0/
#13350000
1!
1,
1/
05!
14!
02
03
10
01
12
13
04
15
16
14
05
06
#13400000
0!
0,
0/
#13450000
1!
1,
1/
15!
00
11
02
03
04
15
16
#13500000
0!
0,
0/
#13550000
1!
1,
1/
05!
04!
03!
12!
06
07
14
05
12
13
10
01
02
04
16
17
18
08
#13600000
0!
0,
0/
#13650000
1!
1,
1/
15!
00
11
12
#13700000
0!
0,
0/
#13750000
1!
1,
1/
05!
14!
02
03
10
01
12
13
14
04
#13800000
0!
0,
0/
#13850000
1!
1,
1/
15!
00
11
02
03
14
#13900000
0!
0,
0/
#13950000
1!
1,
1/
05!
04!
13!
04
15
12
13
10
01
02
14
05
06
07
18
16
17
08
#14000000
0!
0,
0/
#14050000
1!
1,
1/
15!
00
11
12
#14100000
0!
0,
0/
#14150000
1!
1,
1/
05!
14!
02
03
10
01
12
13
04
15
06
07
14
05
16
17
18
08
#14200000
0!
0,
0/
#14250000
1!
1,
1/
15!
00
11
02
03
04
15
06
07
18
#14300000
0!
0,
0/
#14350000
1!
1,
1/
05!
04!
03!
02!
11!
08
19
16
17
14
05
12
13
10
01
02
04
06
18
09
1:
0:
#14400000
0!
0,
0/
#14450000
1!
1,
1/
15!
00
11
12
#14500000
0!
0,
0/
#14550000
1!
1,
1/
05!
14!
02
03
10
01
12
13
14
04
#14600000
0!
0,
0/
#14650000
1!
1,
1/
15!
00
11
02
03
14
#14700000
0!
0,
0/
#14750000
1!
1,
1/
05!
04!
13!
04
15
12
13
10
01
02
14
05
16
06
#14800000
0!
0,
0/
#14850000
1!
1,
1/
15!
00
11
12
#14900000
0!
0,
0/
#14950000
1!
1,
1/
05!
14!
02
03
10
01
12
13
04
15
16
14
05
06
#15000000
0!
0,
0/
#15050000
1!
1,
1/
15!
00
11
02
03
04
15
16
#15100000
0!
0,
0/
#15150000
1!
1,
1/
05!
04!
03!
12!
06
07
14
05
12
13
10
01
02
04
16
17
08
19
1:
18
09
0:
#15200000
0!
0,
0/
#15250000
1!
1,
1/
15!
00
11
12
#15300000
0!
0,
0/
#15350000
1!
1,
1/
05!
14!
02
03
10
01
12
13
14
04
#15400000
0!
0,
0/
#15450000
1!
1,
1/
15!
00
11
02
03
14
#15500000
0!
0,
0/
#15550000
1!
1,
1/
05!
04!
13!
04
15
12
13
10
01
02
14
05
06
07
08
19
16
17
18
09
1:
0:
#15600000
0!
0,
0/
#15650000
1!
1,
1/
15!
00
11
12
#15700000
0!
0,
0/
#15750000
1!
1,
1/
05!
14!
02
03
10
01
12
13
04
15
06
07
14
05
16
17
08
19
1:
18
09
0:
#15800000
0!
0,
0/
#15850000
1!
1,
1/
15!
00
11
02
03
04
15
06
07
08
19
1:
#15900000
0!
0,
0/
#15950000
1!
1,
1/
05!
04!
03!
02!
01!
10!
0:
0;
18
09
16
17
14
05
12
13
10
01
02
04
06
08
1:
1;
1<
0<
#16000000
0!
0,
0/
#16050000
1!
1,
1/
15!
00
11
12
#16100000
0!
0,
0/
#16150000
1!
1,
1/
05!
14!
02
03
10
01
12
13
14
04
#16200000
0!
0,
0/
#16250000
1!
1,
1/
15!
00
11
02
03
14
#16300000
0!
0,
0/
#16350000
1!
1,
1/
05!
04!
13!
04
15
12
13
10
01
02
14
05
16
06
#16400000
0!
0,
0/
#16450000
1!
1,
1/
15!
00
11
12
#16500000
0!
0,
0/
#16550000
1!
1,
1/
05!
14!
02
03
10
01
12
13
04
15
16
14
05
06
#16600000
0!
0,
0/
#16650000
1!
1,
1/
15!
00
11
02
03
04
15
16
#16700000
0!
0,
0/
#16750000
1!
1,
1/
05!
04!
03!
12!
06
07
14
05
12
13
10
01
02
04
16
17
18
08
#16800000
0!
0,
0/
#16850000
1!
1,
1/
15!
00
11
12
#16900000
0!
0,
0/
#16950000
1!
1,
1/
05!
14!
02
03
10
01
12
13
14
04
#17000000
0!
0,
0/
#17050000
1!
1,
1/
15!
00
11
02
03
14
#17100000
0!
0,
0/
#17150000
1!
1,
1/
05!
04!
13!
04
15
12
13
10
01
02
14
05
06
07
18
16
17
08
#17200000
0!
0,
0/
#17250000
1!
1,
1/
15!
00
11
12
#17300000
0!
0,
0/
#17350000
1!
1,
1/
05!
14!
02
03
10
01
12
13
04
15
06
07
14
05
16
17
18
08
#17400000
0!
0,
0/
#17450000
1!
1,
1/
15!
00
11
02
03
04
15
06
07
18
#17500000
0!
0,
0/
#17550000
1!
1,
1/
05!
04!
03!
02!
11!
08
19
16
17
14
05
12
13
10
01
02
04
06
18
09
0:
0;
1<
1:
1;
0<
#17600000
0!
0,
0/
#17650000
1!
1,
1/
15!
00
11
12
#17700000
0!
0,
0/
#17750000
1!
1,
1/
05!
14!
02
03
10
01
12
13
14
04
#17800000
0!
0,
0/
#17850000
1!
1,
1/
15!
00
11
02
03
14
#17900000
0!
0,
0/
#17950000
1!
1,
1/
05!
04!
13!
04
15
12
13
10
01
02
14
05
16
06
#18000000
0!
0,
0/
#18050000
1!
1,
1/
15!
00
11
12
#18100000
0!
0,
0/
#18150000
1!
1,
1/
05!
14!
02
03
10
01
12
13
04
15
16
14
05
06
#18200000
0!
0,
0/
#18250000
1!
1,
1/
15!
00
11
02
03
04
15
16
#18300000
0!
0,
0/
#18350000
1!
1,
1/
05!
04!
03!
12!
06
07
14
05
12
13
10
01
02
04
16
17
08
19
0:
0;
18
09
1:
1;
1<
0<
#18400000
0!
0,
0/
#18450000
1!
1,
1/
15!
00
11
12
#18500000
0!
0,
0/
#18550000
1!
1,
1/
05!
14!
02
03
10
01
12
13
14
04
#18600000
0!
0,
0/
#18650000
1!
1,
1/
15!
00
11
02
03
14
#18700000
0!
0,
0/
#18750000
1!
1,
1/
05!
04!
13!
04
15
1\
12
13
10
01
02
14
05
06
07
08
19
16
17
18
09
0:
0;
1<
1:
1;
0<
#18800000
0!
0,
0/
#18850000
1!
1,
1/
15!
00
11
12
#18900000
0!
0,
0/
#18950000
1!
1,
1/
05!
14!
02
03
10
01
12
13
04
15
06
07
14
05
16
17
08
19
0:
0;
18
09
1:
1;
1<
0<
#19000000
0!
0,
0/
#19050000
1!
1,
1/
15!
00
11
02
03
04
15
06
07
08
19
0:
0;
1<
#19100000
0!
0,
0/
#19150000
1!
1,
1/
05!
04!
03!
02!
01!
00!
1/!
0<
1=
1:
1;
18
09
16
17
14
05
0\
12
13
10
01
02
04
06
08
0:
1<
0=
0>
0@
1A
0?
1>
1@
0A
1?
#19200000
0!
0,
0/
#19250000
1!
1,
1/
15!
00
11
12
#19300000
0!
0,
0/
#19350000
1!
1,
1/
05!
14!
02
03
10
01
12
13
14
04
#19400000
0!
0,
0/
#19450000
1!
1,
1/
15!
00
11
02
03
14
#19500000
0!
0,
0/
#19550000
1!
1,
1/
05!
04!
13!
04
15
12
13
10
01
02
14
05
16
06
#19600000
0!
0,
0/
#19650000
1!
1,
1/
15!
00
11
12
#19700000
0!
0,
0/
#19750000
1!
1,
1/
05!
14!
02
03
10
01
12
13
04
15
16
14
05
06
#19800000
0!
0,
0/
#19850000
1!
1,
1/
15!
00
11
02
03
04
15
16
#19900000
0!
0,
0/
#19950000
1!
1,
1/
05!
04!
03!
12!
06
07
14
05
12
13
10
01
02
04
16
17
18
08
