Altera Tutorial/simulation/qsim/Altera_Tutorial.msim.vcd
$comment
	File created using the following command:
		vcd file Altera_Tutorial.msim.vcd -direction
$end
$date
	Tue Jan 17 21:04:08 2023
$end
$version
	ModelSim Version 10.5b
$end
$timescale
	1ps
$end

$scope module led_vhd_vec_tst $end
$var wire 1 ! clk $end
$var wire 1 " ledOUT $end

$scope module i1 $end
$var wire 1 # gnd $end
$var wire 1 $ vcc $end
$var wire 1 % unknown $end
$var wire 1 & devoe $end
$var wire 1 ' devclrn $end
$var wire 1 ( devpor $end
$var wire 1 ) ww_devoe $end
$var wire 1 * ww_devclrn $end
$var wire 1 + ww_devpor $end
$var wire 1 , ww_clk $end
$var wire 1 - ww_ledOUT $end
$var wire 1 . \ledOUT~output_o\ $end
$var wire 1 / \clk~input_o\ $end
$var wire 1 0 \Add0~0_combout\ $end
$var wire 1 1 \Add0~1\ $end
$var wire 1 2 \Add0~2_combout\ $end
$var wire 1 3 \Add0~3\ $end
$var wire 1 4 \Add0~4_combout\ $end
$var wire 1 5 \Add0~5\ $end
$var wire 1 6 \Add0~6_combout\ $end
$var wire 1 7 \Add0~7\ $end
$var wire 1 8 \Add0~8_combout\ $end
$var wire 1 9 \Add0~9\ $end
$var wire 1 : \Add0~10_combout\ $end
$var wire 1 ; \Add0~11\ $end
$var wire 1 < \Add0~12_combout\ $end
$var wire 1 = \Add0~13\ $end
$var wire 1 > \Add0~14_combout\ $end
$var wire 1 ? \count~2_combout\ $end
$var wire 1 @ \Add0~15\ $end
$var wire 1 A \Add0~16_combout\ $end
$var wire 1 B \Add0~17\ $end
$var wire 1 C \Add0~18_combout\ $end
$var wire 1 D \Add0~19\ $end
$var wire 1 E \Add0~20_combout\ $end
$var wire 1 F \Add0~21\ $end
$var wire 1 G \Add0~22_combout\ $end
$var wire 1 H \Add0~23\ $end
$var wire 1 I \Add0~24_combout\ $end
$var wire 1 J \count~1_combout\ $end
$var wire 1 K \Add0~25\ $end
$var wire 1 L \Add0~26_combout\ $end
$var wire 1 M \count~0_combout\ $end
$var wire 1 N \Equal0~0_combout\ $end
$var wire 1 O \Equal0~1_combout\ $end
$var wire 1 P \Equal0~2_combout\ $end
$var wire 1 Q \Add0~27\ $end
$var wire 1 R \Add0~28_combout\ $end
$var wire 1 S \count~3_combout\ $end
$var wire 1 T \Add0~29\ $end
$var wire 1 U \Add0~30_combout\ $end
$var wire 1 V \count~4_combout\ $end
$var wire 1 W \Equal0~3_combout\ $end
$var wire 1 X \Equal0~4_combout\ $end
$var wire 1 Y \Add0~31\ $end
$var wire 1 Z \Add0~32_combout\ $end
$var wire 1 [ \Add0~33\ $end
$var wire 1 \ \Add0~34_combout\ $end
$var wire 1 ] \count~5_combout\ $end
$var wire 1 ^ \Add0~35\ $end
$var wire 1 _ \Add0~36_combout\ $end
$var wire 1 ` \Add0~37\ $end
$var wire 1 a \Add0~38_combout\ $end
$var wire 1 b \count~6_combout\ $end
$var wire 1 c \Equal0~5_combout\ $end
$var wire 1 d \Add0~39\ $end
$var wire 1 e \Add0~40_combout\ $end
$var wire 1 f \count~7_combout\ $end
$var wire 1 g \Add0~41\ $end
$var wire 1 h \Add0~42_combout\ $end
$var wire 1 i \count~8_combout\ $end
$var wire 1 j \Add0~43\ $end
$var wire 1 k \Add0~44_combout\ $end
$var wire 1 l \count~9_combout\ $end
$var wire 1 m \Add0~45\ $end
$var wire 1 n \Add0~46_combout\ $end
$var wire 1 o \count~10_combout\ $end
$var wire 1 p \Equal0~6_combout\ $end
$var wire 1 q \Add0~47\ $end
$var wire 1 r \Add0~48_combout\ $end
$var wire 1 s \Add0~49\ $end
$var wire 1 t \Add0~50_combout\ $end
$var wire 1 u \count~11_combout\ $end
$var wire 1 v \Equal0~7_combout\ $end
$var wire 1 w \Equal0~8_combout\ $end
$var wire 1 x \pulse~0_combout\ $end
$var wire 1 y \pulse~q\ $end
$var wire 1 z count [25] $end
$var wire 1 { count [24] $end
$var wire 1 | count [23] $end
$var wire 1 } count [22] $end
$var wire 1 ~ count [21] $end
$var wire 1 !! count [20] $end
$var wire 1 "! count [19] $end
$var wire 1 #! count [18] $end
$var wire 1 $! count [17] $end
$var wire 1 %! count [16] $end
$var wire 1 &! count [15] $end
$var wire 1 '! count [14] $end
$var wire 1 (! count [13] $end
$var wire 1 )! count [12] $end
$var wire 1 *! count [11] $end
$var wire 1 +! count [10] $end
$var wire 1 ,! count [9] $end
$var wire 1 -! count [8] $end
$var wire 1 .! count [7] $end
$var wire 1 /! count [6] $end
$var wire 1 0! count [5] $end
$var wire 1 1! count [4] $end
$var wire 1 2! count [3] $end
$var wire 1 3! count [2] $end
$var wire 1 4! count [1] $end
$var wire 1 5! count [0] $end
$upscope $end
$upscope $end
$enddefinitions $end
#0
$dumpvars
0!
0"
0#
1$
x%
1&
1'
1(
1)
1*
1+
0,
0-
0.
0/
10
01
02
13
04
05
06
17
08
09
0:
1;
0<
0=
0>
0?
1@
0A
0B
0C
1D
0E
0F
0G
1H
0I
0J
0K
0L
0M
0N
0O
0P
1Q
0R
0S
0T
0U
0V
0W
0X
1Y
0Z
0[
0\
0]
1^
0_
0`
0a
0b
0c
1d
0e
0f
0g
0h
0i
1j
0k
0l
0m
0n
0o
0p
1q
0r
0s
0t
0u
0v
0w
0x
0y
0z
0{
0|
0}
0~
0!!
0"!
0#!
0$!
0%!
0&!
0'!
0(!
0)!
0*!
0+!
0,!
0-!
0.!
0/!
00!
01!
02!
03!
04!
05!
$end
#5000
1!
1,
1/
15!
00
11
12
#10000
0!
0,
0/
#15000
1!
1,
1/
05!
14!
02
03
10
01
12
13
14
04
#20000
0!
0,
0/
#25000
1!
1,
1/
15!
00
11
02
03
14
#30000
0!
0,
0/
#35000
1!
1,
1/
05!
04!
13!
04
15
12
13
10
01
02
14
05
16
06
#40000
0!
0,
0/
#45000
1!
1,
1/
15!
00
11
12
#50000
0!
0,
0/
#55000
1!
1,
1/
05!
14!
02
03
10
01
12
13
04
15
16
14
05
06
#60000
0!
0,
0/
#65000
1!
1,
1/
15!
00
11
02
03
04
15
16
#70000
0!
0,
0/
#75000
1!
1,
1/
05!
04!
03!
12!
06
07
14
05
12
13
10
01
02
04
16
17
18
08
#80000
0!
0,
0/
#85000
1!
1,
1/
15!
00
11
12
#90000
0!
0,
0/
#95000
1!
1,
1/
05!
14!
02
03
10
01
12
13
14
04
#100000
0!
0,
0/
#105000
1!
1,
1/
15!
00
11
02
03
14
#110000
0!
0,
0/
#115000
1!
1,
1/
05!
04!
13!
04
15
12
13
10
01
02
14
05
06
07
18
16
17
08
#120000
0!
0,
0/
#125000
1!
1,
1/
15!
00
11
12
#130000
0!
0,
0/
#135000
1!
1,
1/
05!
14!
02
03
10
01
12
13
04
15
06
07
14
05
16
17
18
08
#140000
0!
0,
0/
#145000
1!
1,
1/
15!
00
11
02
03
04
15
06
07
18
#150000
0!
0,
0/
#155000
1!
1,
1/
05!
04!
03!
02!
11!
08
19
16
17
14
05
12
13
10
01
02
04
06
18
09
1:
0:
#160000
0!
0,
0/
#165000
1!
1,
1/
15!
00
11
12
#170000
0!
0,
0/
#175000
1!
1,
1/
05!
14!
02
03
10
01
12
13
14
04
#180000
0!
0,
0/
#185000
1!
1,
1/
15!
00
11
02
03
14
#190000
0!
0,
0/
#195000
1!
1,
1/
05!
04!
13!
04
15
12
13
10
01
02
14
05
16
06
#200000
0!
0,
0/
#205000
1!
1,
1/
15!
00
11
12
#210000
0!
0,
0/
#215000
1!
1,
1/
05!
14!
02
03
10
01
12
13
04
15
16
14
05
06
#220000
0!
0,
0/
#225000
1!
1,
1/
15!
00
11
02
03
04
15
16
#230000
0!
0,
0/
#235000
1!
1,
1/
05!
04!
03!
12!
06
07
14
05
12
13
10
01
02
04
16
17
08
19
1:
18
09
0:
#240000
0!
0,
0/
#245000
1!
1,
1/
15!
00
11
12
#250000
0!
0,
0/
#255000
1!
1,
1/
05!
14!
02
03
10
01
12
13
14
04
#260000
0!
0,
0/
#265000
1!
1,
1/
15!
00
11
02
03
14
#270000
0!
0,
0/
#275000
1!
1,
1/
05!
04!
13!
04
15
12
13
10
01
02
14
05
06
07
08
19
16
17
18
09
1:
0:
#280000
0!
0,
0/
#285000
1!
1,
1/
15!
00
11
12
#290000
0!
0,
0/
#295000
1!
1,
1/
05!
14!
02
03
10
01
12
13
04
15
06
07
14
05
16
17
08
19
1:
18
09
0:
#300000
0!
0,
0/
#305000
1!
1,
1/
15!
00
11
02
03
04
15
06
07
08
19
1:
#310000
0!
0,
0/
#315000
1!
1,
1/
05!
04!
03!
02!
01!
10!
0:
0;
18
09
16
17
14
05
12
13
10
01
02
04
06
08
1:
1;
1<
0<
#320000
0!
0,
0/
#325000
1!
1,
1/
15!
00
11
12
#330000
0!
0,
0/
#335000
1!
1,
1/
05!
14!
02
03
10
01
12
13
14
04
#340000
0!
0,
0/
#345000
1!
1,
1/
15!
00
11
02
03
14
#350000
0!
0,
0/
#355000
1!
1,
1/
05!
04!
13!
04
15
12
13
10
01
02
14
05
16
06
#360000
0!
0,
0/
#365000
1!
1,
1/
15!
00
11
12
#370000
0!
0,
0/
#375000
1!
1,
1/
05!
14!
02
03
10
01
12
13
04
15
16
14
05
06
#380000
0!
0,
0/
#385000
1!
1,
1/
15!
00
11
02
03
04
15
16
#390000
0!
0,
0/
#395000
1!
1,
1/
05!
04!
03!
12!
06
07
14
05
12
13
10
01
02
04
16
17
18
08
#400000
0!
0,
0/
#405000
1!
1,
1/
15!
00
11
12
#410000
0!
0,
0/
#415000
1!
1,
1/
05!
14!
02
03
10
01
12
13
14
04
#420000
0!
0,
0/
#425000
1!
1,
1/
15!
00
11
02
03
14
#430000
0!
0,
0/
#435000
1!
1,
1/
05!
04!
13!
04
15
12
13
10
01
02
14
05
06
07
18
16
17
08
#440000
0!
0,
0/
#445000
1!
1,
1/
15!
00
11
12
#450000
0!
0,
0/
#455000
1!
1,
1/
05!
14!
02
03
10
01
12
13
04
15
06
07
14
05
16
17
18
08
#460000
0!
0,
0/
#465000
1!
1,
1/
15!
00
11
02
03
04
15
06
07
18
#470000
0!
0,
0/
#475000
1!
1,
1/
05!
04!
03!
02!
11!
08
19
16
17
14
05
12
13
10
01
02
04
06
18
09
0:
0;
1<
1:
1;
0<
#480000
0!
0,
0/
#485000
1!
1,
1/
15!
00
11
12
#490000
0!
0,
0/
#495000
1!
1,
1/
05!
14!
02
03
10
01
12
13
14
04
#500000
0!
0,
0/
#505000
1!
1,
1/
15!
00
11
02
03
14
#510000
0!
0,
0/
#515000
1!
1,
1/
05!
04!
13!
04
15
12
13
10
01
02
14
05
16
06
#520000
0!
0,
0/
#525000
1!
1,
1/
15!
00
11
12
#530000
0!
0,
0/
#535000
1!
1,
1/
05!
14!
02
03
10
01
12
13
04
15
16
14
05
06
#540000
0!
0,
0/
#545000
1!
1,
1/
15!
00
11
02
03
04
15
16
#550000
0!
0,
0/
#555000
1!
1,
1/
05!
04!
03!
12!
06
07
14
05
12
13
10
01
02
04
16
17
08
19
0:
0;
18
09
1:
1;
1<
0<
#560000
0!
0,
0/
#565000
1!
1,
1/
15!
00
11
12
#570000
0!
0,
0/
#575000
1!
1,
1/
05!
14!
02
03
10
01
12
13
14
04
#580000
0!
0,
0/
#585000
1!
1,
1/
15!
00
11
02
03
14
#590000
0!
0,
0/
#595000
1!
1,
1/
05!
04!
13!
04
15
1P
12
13
10
01
02
14
05
06
07
08
19
16
17
18
09
0:
0;
1<
1:
1;
0<
#600000
0!
0,
0/
#605000
1!
1,
1/
15!
00
11
12
#610000
0!
0,
0/
#615000
1!
1,
1/
05!
14!
02
03
10
01
12
13
04
15
06
07
14
05
16
17
08
19
0:
0;
18
09
1:
1;
1<
0<
#620000
0!
0,
0/
#625000
1!
1,
1/
15!
00
11
02
03
04
15
06
07
08
19
0:
0;
1<
#630000
0!
0,
0/
#635000
1!
1,
1/
05!
04!
03!
02!
01!
00!
1/!
0<
1=
1O
1:
1;
18
09
16
17
14
05
0P
12
13
10
01
02
04
06
08
0:
1<
0=
1>
1?
0>
0?
#640000
0!
0,
0/
#645000
1!
1,
1/
15!
00
11
12
#650000
0!
0,
0/
#655000
1!
1,
1/
05!
14!
02
03
10
01
12
13
14
04
#660000
0!
0,
0/
#665000
1!
1,
1/
15!
00
11
02
03
14
#670000
0!
0,
0/
#675000
1!
1,
1/
05!
04!
13!
04
15
12
13
10
01
02
14
05
16
06
#680000
0!
0,
0/
#685000
1!
1,
1/
15!
00
11
12
#690000
0!
0,
0/
#695000
1!
1,
1/
05!
14!
02
03
10
01
12
13
04
15
16
14
05
06
#700000
0!
0,
0/
#705000
1!
1,
1/
15!
00
11
02
03
04
15
16
#710000
0!
0,
0/
#715000
1!
1,
1/
05!
04!
03!
12!
06
07
14
05
12
13
10
01
02
04
16
17
18
08
#720000
0!
0,
0/
#725000
1!
1,
1/
15!
00
11
12
#730000
0!
0,
0/
#735000
1!
1,
1/
05!
14!
02
03
10
01
12
13
14
04
#740000
0!
0,
0/
#745000
1!
1,
1/
15!
00
11
02
03
14
#750000
0!
0,
0/
#755000
1!
1,
1/
05!
04!
13!
04
15
12
13
10
01
02
14
05
06
07
18
16
17
08
#760000
0!
0,
0/
#765000
1!
1,
1/
15!
00
11
12
#770000
0!
0,
0/
#775000
1!
1,
1/
05!
14!
02
03
10
01
12
13
04
15
06
07
14
05
16
17
18
08
#780000
0!
0,
0/
#785000
1!
1,
1/
15!
00
11
02
03
04
15
06
07
18
#790000
0!
0,
0/
#795000
1!
1,
1/
05!
04!
03!
02!
11!
08
19
16
17
14
05
12
13
10
01
02
04
06
18
09
1:
0:
#800000
0!
0,
0/
#805000
1!
1,
1/
15!
00
11
12
#810000
0!
0,
0/
#815000
1!
1,
1/
05!
14!
02
03
10
01
12
13
14
04
#820000
0!
0,
0/
#825000
1!
1,
1/
15!
00
11
02
03
14
#830000
0!
0,
0/
#835000
1!
1,
1/
05!
04!
13!
04
15
12
13
10
01
02
14
05
16
06
#840000
0!
0,
0/
#845000
1!
1,
1/
15!
00
11
12
#850000
0!
0,
0/
#855000
1!
1,
1/
05!
14!
02
03
10
01
12
13
04
15
16
14
05
06
#860000
0!
0,
0/
#865000
1!
1,
1/
15!
00
11
02
03
04
15
16
#870000
0!
0,
0/
#875000
1!
1,
1/
05!
04!
03!
12!
06
07
14
05
12
13
10
01
02
04
16
17
08
19
1:
18
09
0:
#880000
0!
0,
0/
#885000
1!
1,
1/
15!
00
11
12
#890000
0!
0,
0/
#895000
1!
1,
1/
05!
14!
02
03
10
01
12
13
14
04
#900000
0!
0,
0/
#905000
1!
1,
1/
15!
00
11
02
03
14
#910000
0!
0,
0/
#915000
1!
1,
1/
05!
04!
13!
04
15
12
13
10
01
02
14
05
06
07
08
19
16
17
18
09
1:
0:
#920000
0!
0,
0/
#925000
1!
1,
1/
15!
00
11
12
#930000
0!
0,
0/
#935000
1!
1,
1/
05!
14!
02
03
10
01
12
13
04
15
06
07
14
05
16
17
08
19
1:
18
09
0:
#940000
0!
0,
0/
#945000
1!
1,
1/
15!
00
11
02
03
04
15
06
07
08
19
1:
#950000
0!
0,
0/
#955000
1!
1,
1/
05!
04!
03!
02!
01!
10!
0:
0;
18
09
16
17
14
05
12
13
10
01
02
04
06
08
1:
1;
0<
1=
1>
1<
0=
0>
1?
0?
#960000
0!
0,
0/
#965000
1!
1,
1/
15!
00
11
12
#970000
0!
0,
0/
#975000
1!
1,
1/
05!
14!
02
03
10
01
12
13
14
04
#980000
0!
0,
0/
#985000
1!
1,
1/
15!
00
11
02
03
14
#990000
0!
0,
0/
#995000
1!
1,
1/
05!
04!
13!
04
15
12
13
10
01
02
14
05
16
06
