Altera Tutorial/simulation/qsim/Altera_Tutorial.msim.vcd
$comment
	File created using the following command:
		vcd file Altera_Tutorial.msim.vcd -direction
$end
$date
	Wed May 17 01:36:20 2023
$end
$version
	ModelSim Version 10.5b
$end
$timescale
	1ps
$end

$scope module data_spliter_vhd_vec_tst $end
$var wire 1 ! data [7] $end
$var wire 1 " data [6] $end
$var wire 1 # data [5] $end
$var wire 1 $ data [4] $end
$var wire 1 % data [3] $end
$var wire 1 & data [2] $end
$var wire 1 ' data [1] $end
$var wire 1 ( data [0] $end
$var wire 1 ) Laser $end
$var wire 1 * motor [2] $end
$var wire 1 + motor [1] $end
$var wire 1 , motor [0] $end
$var wire 1 - servo [5] $end
$var wire 1 . servo [4] $end
$var wire 1 / servo [3] $end
$var wire 1 0 speedMotor $end

$scope module i1 $end
$var wire 1 1 gnd $end
$var wire 1 2 vcc $end
$var wire 1 3 unknown $end
$var wire 1 4 devoe $end
$var wire 1 5 devclrn $end
$var wire 1 6 devpor $end
$var wire 1 7 ww_devoe $end
$var wire 1 8 ww_devclrn $end
$var wire 1 9 ww_devpor $end
$var wire 1 : ww_data [7] $end
$var wire 1 ; ww_data [6] $end
$var wire 1 < ww_data [5] $end
$var wire 1 = ww_data [4] $end
$var wire 1 > ww_data [3] $end
$var wire 1 ? ww_data [2] $end
$var wire 1 @ ww_data [1] $end
$var wire 1 A ww_data [0] $end
$var wire 1 B ww_motor [2] $end
$var wire 1 C ww_motor [1] $end
$var wire 1 D ww_motor [0] $end
$var wire 1 E ww_servo [5] $end
$var wire 1 F ww_servo [4] $end
$var wire 1 G ww_servo [3] $end
$var wire 1 H ww_speedMotor $end
$var wire 1 I ww_Laser $end
$var wire 1 J \motor[0]~output_o\ $end
$var wire 1 K \motor[1]~output_o\ $end
$var wire 1 L \motor[2]~output_o\ $end
$var wire 1 M \servo[3]~output_o\ $end
$var wire 1 N \servo[4]~output_o\ $end
$var wire 1 O \servo[5]~output_o\ $end
$var wire 1 P \speedMotor~output_o\ $end
$var wire 1 Q \Laser~output_o\ $end
$var wire 1 R \data[0]~input_o\ $end
$var wire 1 S \data[1]~input_o\ $end
$var wire 1 T \data[2]~input_o\ $end
$var wire 1 U \data[4]~input_o\ $end
$var wire 1 V \data[5]~input_o\ $end
$var wire 1 W \data[6]~input_o\ $end
$var wire 1 X \data[3]~input_o\ $end
$var wire 1 Y \data[7]~input_o\ $end
$upscope $end
$upscope $end
$enddefinitions $end
#0
$dumpvars
0)
00
01
12
x3
14
15
16
17
18
19
0H
0I
0J
0K
0L
0M
0N
0O
0P
0Q
0R
0S
0T
0U
0V
0W
0X
0Y
0!
0"
0#
0$
0%
0&
0'
0(
0*
0+
0,
0-
0.
0/
0:
0;
0<
0=
0>
0?
0@
0A
0B
0C
0D
0E
0F
0G
$end
#20000
1(
1A
1R
1J
1D
1,
#40000
0(
1'
0A
1@
1S
0R
0J
1K
0D
1C
0,
1+
#60000
1(
1A
1R
1J
1D
1,
#80000
0(
0'
1&
0A
0@
1?
1T
0S
0R
0J
0K
1L
0D
0C
1B
0,
0+
1*
#100000
1(
1A
1R
1J
1D
1,
#120000
0(
1'
0A
1@
1S
0R
0J
1K
0D
1C
0,
1+
#140000
1(
1A
1R
1J
1D
1,
#160000
0(
0'
0&
1%
0A
0@
0?
1>
1X
0T
0S
0R
0J
0K
0L
1P
0D
0C
0B
1H
0,
0+
0*
10
#180000
1(
1A
1R
1J
1D
1,
#200000
0(
1'
0A
1@
1S
0R
0J
1K
0D
1C
0,
1+
#220000
1(
1A
1R
1J
1D
1,
#240000
0(
0'
1&
0A
0@
1?
1T
0S
0R
0J
0K
1L
0D
0C
1B
0,
0+
1*
#260000
1(
1A
1R
1J
1D
1,
#280000
0(
1'
0A
1@
1S
0R
0J
1K
0D
1C
0,
1+
#300000
1(
1A
1R
1J
1D
1,
#320000
0(
0'
0&
0%
1$
0A
0@
0?
0>
1=
1U
0X
0T
0S
0R
0J
0K
0L
0P
1M
0D
0C
0B
0H
1G
0,
0+
0*
00
1/
#340000
1(
1A
1R
1J
1D
1,
#360000
0(
1'
0A
1@
1S
0R
0J
1K
0D
1C
0,
1+
#380000
1(
1A
1R
1J
1D
1,
#400000
0(
0'
1&
0A
0@
1?
1T
0S
0R
0J
0K
1L
0D
0C
1B
0,
0+
1*
#420000
1(
1A
1R
1J
1D
1,
#440000
0(
1'
0A
1@
1S
0R
0J
1K
0D
1C
0,
1+
#460000
1(
1A
1R
1J
1D
1,
#480000
0(
0'
0&
1%
0A
0@
0?
1>
1X
0T
0S
0R
0J
0K
0L
1P
0D
0C
0B
1H
0,
0+
0*
10
#500000
1(
1A
1R
1J
1D
1,
#520000
0(
1'
0A
1@
1S
0R
0J
1K
0D
1C
0,
1+
#540000
1(
1A
1R
1J
1D
1,
#560000
0(
0'
1&
0A
0@
1?
1T
0S
0R
0J
0K
1L
0D
0C
1B
0,
0+
1*
#580000
1(
1A
1R
1J
1D
1,
#600000
0(
1'
0A
1@
1S
0R
0J
1K
0D
1C
0,
1+
#620000
1(
1A
1R
1J
1D
1,
#640000
0(
0'
0&
0%
0$
1#
0A
0@
0?
0>
0=
1<
1V
0U
0X
0T
0S
0R
0J
0K
0L
0P
0M
1N
0D
0C
0B
0H
0G
1F
0,
0+
0*
00
0/
1.
#660000
1(
1A
1R
1J
1D
1,
#680000
0(
1'
0A
1@
1S
0R
0J
1K
0D
1C
0,
1+
#700000
1(
1A
1R
1J
1D
1,
#720000
0(
0'
1&
0A
0@
1?
1T
0S
0R
0J
0K
1L
0D
0C
1B
0,
0+
1*
#740000
1(
1A
1R
1J
1D
1,
#760000
0(
1'
0A
1@
1S
0R
0J
1K
0D
1C
0,
1+
#780000
1(
1A
1R
1J
1D
1,
#800000
0(
0'
0&
1%
0A
0@
0?
1>
1X
0T
0S
0R
0J
0K
0L
1P
0D
0C
0B
1H
0,
0+
0*
10
#820000
1(
1A
1R
1J
1D
1,
#840000
0(
1'
0A
1@
1S
0R
0J
1K
0D
1C
0,
1+
#860000
1(
1A
1R
1J
1D
1,
#880000
0(
0'
1&
0A
0@
1?
1T
0S
0R
0J
0K
1L
0D
0C
1B
0,
0+
1*
#900000
1(
1A
1R
1J
1D
1,
#920000
0(
1'
0A
1@
1S
0R
0J
1K
0D
1C
0,
1+
#940000
1(
1A
1R
1J
1D
1,
#960000
0(
0'
0&
0%
1$
0A
0@
0?
0>
1=
1U
0X
0T
0S
0R
0J
0K
0L
0P
1M
0D
0C
0B
0H
1G
0,
0+
0*
00
1/
#980000
1(
1A
1R
1J
1D
1,
#1000000
0(
1'
0A
1@
1S
0R
0J
1K
0D
1C
0,
1+
#1020000
1(
1A
1R
1J
1D
1,
#1040000
0(
0'
1&
0A
0@
1?
1T
0S
0R
0J
0K
1L
0D
0C
1B
0,
0+
1*
#1060000
1(
1A
1R
1J
1D
1,
#1080000
0(
1'
0A
1@
1S
0R
0J
1K
0D
1C
0,
1+
#1100000
1(
1A
1R
1J
1D
1,
#1120000
0(
0'
0&
1%
0A
0@
0?
1>
1X
0T
0S
0R
0J
0K
0L
1P
0D
0C
0B
1H
0,
0+
0*
10
#1140000
1(
1A
1R
1J
1D
1,
#1160000
0(
1'
0A
1@
1S
0R
0J
1K
0D
1C
0,
1+
#1180000
1(
1A
1R
1J
1D
1,
#1200000
0(
0'
1&
0A
0@
1?
1T
0S
0R
0J
0K
1L
0D
0C
1B
0,
0+
1*
#1220000
1(
1A
1R
1J
1D
1,
#1240000
0(
1'
0A
1@
1S
0R
0J
1K
0D
1C
0,
1+
#1260000
1(
1A
1R
1J
1D
1,
#1280000
0(
0'
0&
0%
0$
0#
1"
0A
0@
0?
0>
0=
0<
1;
1W
0V
0U
0X
0T
0S
0R
0J
0K
0L
0P
0M
0N
1O
0D
0C
0B
0H
0G
0F
1E
0,
0+
0*
00
0/
0.
1-
#1300000
1(
1A
1R
1J
1D
1,
#1320000
0(
1'
0A
1@
1S
0R
0J
1K
0D
1C
0,
1+
#1340000
1(
1A
1R
1J
1D
1,
#1360000
0(
0'
1&
0A
0@
1?
1T
0S
0R
0J
0K
1L
0D
0C
1B
0,
0+
1*
#1380000
1(
1A
1R
1J
1D
1,
#1400000
0(
1'
0A
1@
1S
0R
0J
1K
0D
1C
0,
1+
#1420000
1(
1A
1R
1J
1D
1,
#1440000
0(
0'
0&
1%
0A
0@
0?
1>
1X
0T
0S
0R
0J
0K
0L
1P
0D
0C
0B
1H
0,
0+
0*
10
#1460000
1(
1A
1R
1J
1D
1,
#1480000
0(
1'
0A
1@
1S
0R
0J
1K
0D
1C
0,
1+
#1500000
1(
1A
1R
1J
1D
1,
#1520000
0(
0'
1&
0A
0@
1?
1T
0S
0R
0J
0K
1L
0D
0C
1B
0,
0+
1*
#1540000
1(
1A
1R
1J
1D
1,
#1560000
0(
1'
0A
1@
1S
0R
0J
1K
0D
1C
0,
1+
#1580000
1(
1A
1R
1J
1D
1,
#1600000
0(
0'
0&
0%
1$
0A
0@
0?
0>
1=
1U
0X
0T
0S
0R
0J
0K
0L
0P
1M
0D
0C
0B
0H
1G
0,
0+
0*
00
1/
#1620000
1(
1A
1R
1J
1D
1,
#1640000
0(
1'
0A
1@
1S
0R
0J
1K
0D
1C
0,
1+
#1660000
1(
1A
1R
1J
1D
1,
#1680000
0(
0'
1&
0A
0@
1?
1T
0S
0R
0J
0K
1L
0D
0C
1B
0,
0+
1*
#1700000
1(
1A
1R
1J
1D
1,
#1720000
0(
1'
0A
1@
1S
0R
0J
1K
0D
1C
0,
1+
#1740000
1(
1A
1R
1J
1D
1,
#1760000
0(
0'
0&
1%
0A
0@
0?
1>
1X
0T
0S
0R
0J
0K
0L
1P
0D
0C
0B
1H
0,
0+
0*
10
#1780000
1(
1A
1R
1J
1D
1,
#1800000
0(
1'
0A
1@
1S
0R
0J
1K
0D
1C
0,
1+
#1820000
1(
1A
1R
1J
1D
1,
#1840000
0(
0'
1&
0A
0@
1?
1T
0S
0R
0J
0K
1L
0D
0C
1B
0,
0+
1*
#1860000
1(
1A
1R
1J
1D
1,
#1880000
0(
1'
0A
1@
1S
0R
0J
1K
0D
1C
0,
1+
#1900000
1(
1A
1R
1J
1D
1,
#1920000
0(
0'
0&
0%
0$
1#
0A
0@
0?
0>
0=
1<
1V
0U
0X
0T
0S
0R
0J
0K
0L
0P
0M
1N
0D
0C
0B
0H
0G
1F
0,
0+
0*
00
0/
1.
#1940000
1(
1A
1R
1J
1D
1,
#1960000
0(
1'
0A
1@
1S
0R
0J
1K
0D
1C
0,
1+
#1980000
1(
1A
1R
1J
1D
1,
#2000000
0(
0'
1&
0A
0@
1?
1T
0S
0R
0J
0K
1L
0D
0C
1B
0,
0+
1*
#2020000
1(
1A
1R
1J
1D
1,
#2040000
0(
1'
0A
1@
1S
0R
0J
1K
0D
1C
0,
1+
#2060000
1(
1A
1R
1J
1D
1,
#2080000
0(
0'
0&
1%
0A
0@
0?
1>
1X
0T
0S
0R
0J
0K
0L
1P
0D
0C
0B
1H
0,
0+
0*
10
#2100000
1(
1A
1R
1J
1D
1,
#2120000
0(
1'
0A
1@
1S
0R
0J
1K
0D
1C
0,
1+
#2140000
1(
1A
1R
1J
1D
1,
#2160000
0(
0'
1&
0A
0@
1?
1T
0S
0R
0J
0K
1L
0D
0C
1B
0,
0+
1*
#2180000
1(
1A
1R
1J
1D
1,
#2200000
0(
1'
0A
1@
1S
0R
0J
1K
0D
1C
0,
1+
#2220000
1(
1A
1R
1J
1D
1,
#2240000
0(
0'
0&
0%
1$
0A
0@
0?
0>
1=
1U
0X
0T
0S
0R
0J
0K
0L
0P
1M
0D
0C
0B
0H
1G
0,
0+
0*
00
1/
#2260000
1(
1A
1R
1J
1D
1,
#2280000
0(
1'
0A
1@
1S
0R
0J
1K
0D
1C
0,
1+
#2300000
1(
1A
1R
1J
1D
1,
#2320000
0(
0'
1&
0A
0@
1?
1T
0S
0R
0J
0K
1L
0D
0C
1B
0,
0+
1*
#2340000
1(
1A
1R
1J
1D
1,
#2360000
0(
1'
0A
1@
1S
0R
0J
1K
0D
1C
0,
1+
#2380000
1(
1A
1R
1J
1D
1,
#2400000
0(
0'
0&
1%
0A
0@
0?
1>
1X
0T
0S
0R
0J
0K
0L
1P
0D
0C
0B
1H
0,
0+
0*
10
#2420000
1(
1A
1R
1J
1D
1,
#2440000
0(
1'
0A
1@
1S
0R
0J
1K
0D
1C
0,
1+
#2460000
1(
1A
1R
1J
1D
1,
#2480000
0(
0'
1&
0A
0@
1?
1T
0S
0R
0J
0K
1L
0D
0C
1B
0,
0+
1*
#2500000
1(
1A
1R
1J
1D
1,
#2520000
0(
1'
0A
1@
1S
0R
0J
1K
0D
1C
0,
1+
#2540000
1(
1A
1R
1J
1D
1,
#2560000
0(
0'
0&
0%
0$
0#
0"
1!
0A
0@
0?
0>
0=
0<
0;
1:
1Y
0W
0V
0U
0X
0T
0S
0R
0J
0K
0L
0P
0M
0N
0O
1Q
0D
0C
0B
0H
0G
0F
0E
1I
0,
0+
0*
00
0/
0.
0-
1)
#2580000
1(
1A
1R
1J
1D
1,
#2600000
0(
1'
0A
1@
1S
0R
0J
1K
0D
1C
0,
1+
#2620000
1(
1A
1R
1J
1D
1,
#2640000
0(
0'
1&
0A
0@
1?
1T
0S
0R
0J
0K
1L
0D
0C
1B
0,
0+
1*
#2660000
1(
1A
1R
1J
1D
1,
#2680000
0(
1'
0A
1@
1S
0R
0J
1K
0D
1C
0,
1+
#2700000
1(
1A
1R
1J
1D
1,
#2720000
0(
0'
0&
1%
0A
0@
0?
1>
1X
0T
0S
0R
0J
0K
0L
1P
0D
0C
0B
1H
0,
0+
0*
10
#2740000
1(
1A
1R
1J
1D
1,
#2760000
0(
1'
0A
1@
1S
0R
0J
1K
0D
1C
0,
1+
#2780000
1(
1A
1R
1J
1D
1,
#2800000
0(
0'
1&
0A
0@
1?
1T
0S
0R
0J
0K
1L
0D
0C
1B
0,
0+
1*
#2820000
1(
1A
1R
1J
1D
1,
#2840000
0(
1'
0A
1@
1S
0R
0J
1K
0D
1C
0,
1+
#2860000
1(
1A
1R
1J
1D
1,
#2880000
0(
0'
0&
0%
1$
0A
0@
0?
0>
1=
1U
0X
0T
0S
0R
0J
0K
0L
0P
1M
0D
0C
0B
0H
1G
0,
0+
0*
00
1/
#2900000
1(
1A
1R
1J
1D
1,
#2920000
0(
1'
0A
1@
1S
0R
0J
1K
0D
1C
0,
1+
#2940000
1(
1A
1R
1J
1D
1,
#2960000
0(
0'
1&
0A
0@
1?
1T
0S
0R
0J
0K
1L
0D
0C
1B
0,
0+
1*
#2980000
1(
1A
1R
1J
1D
1,
#3000000
0(
1'
0A
1@
1S
0R
0J
1K
0D
1C
0,
1+
#3020000
1(
1A
1R
1J
1D
1,
#3040000
0(
0'
0&
1%
0A
0@
0?
1>
1X
0T
0S
0R
0J
0K
0L
1P
0D
0C
0B
1H
0,
0+
0*
10
#3060000
1(
1A
1R
1J
1D
1,
#3080000
0(
1'
0A
1@
1S
0R
0J
1K
0D
1C
0,
1+
#3100000
1(
1A
1R
1J
1D
1,
#3120000
0(
0'
1&
0A
0@
1?
1T
0S
0R
0J
0K
1L
0D
0C
1B
0,
0+
1*
#3140000
1(
1A
1R
1J
1D
1,
#3160000
0(
1'
0A
1@
1S
0R
0J
1K
0D
1C
0,
1+
#3180000
1(
1A
1R
1J
1D
1,
#3200000
0(
0'
0&
0%
0$
1#
0A
0@
0?
0>
0=
1<
1V
0U
0X
0T
0S
0R
0J
0K
0L
0P
0M
1N
0D
0C
0B
0H
0G
1F
0,
0+
0*
00
0/
1.
#3220000
1(
1A
1R
1J
1D
1,
#3240000
0(
1'
0A
1@
1S
0R
0J
1K
0D
1C
0,
1+
#3260000
1(
1A
1R
1J
1D
1,
#3280000
0(
0'
1&
0A
0@
1?
1T
0S
0R
0J
0K
1L
0D
0C
1B
0,
0+
1*
#3300000
1(
1A
1R
1J
1D
1,
#3320000
0(
1'
0A
1@
1S
0R
0J
1K
0D
1C
0,
1+
#3340000
1(
1A
1R
1J
1D
1,
#3360000
0(
0'
0&
1%
0A
0@
0?
1>
1X
0T
0S
0R
0J
0K
0L
1P
0D
0C
0B
1H
0,
0+
0*
10
#3380000
1(
1A
1R
1J
1D
1,
#3400000
0(
1'
0A
1@
1S
0R
0J
1K
0D
1C
0,
1+
#3420000
1(
1A
1R
1J
1D
1,
#3440000
0(
0'
1&
0A
0@
1?
1T
0S
0R
0J
0K
1L
0D
0C
1B
0,
0+
1*
#3460000
1(
1A
1R
1J
1D
1,
#3480000
0(
1'
0A
1@
1S
0R
0J
1K
0D
1C
0,
1+
#3500000
1(
1A
1R
1J
1D
1,
#3520000
0(
0'
0&
0%
1$
0A
0@
0?
0>
1=
1U
0X
0T
0S
0R
0J
0K
0L
0P
1M
0D
0C
0B
0H
1G
0,
0+
0*
00
1/
#3540000
1(
1A
1R
1J
1D
1,
#3560000
0(
1'
0A
1@
1S
0R
0J
1K
0D
1C
0,
1+
#3580000
1(
1A
1R
1J
1D
1,
#3600000
0(
0'
1&
0A
0@
1?
1T
0S
0R
0J
0K
1L
0D
0C
1B
0,
0+
1*
#3620000
1(
1A
1R
1J
1D
1,
#3640000
0(
1'
0A
1@
1S
0R
0J
1K
0D
1C
0,
1+
#3660000
1(
1A
1R
1J
1D
1,
#3680000
0(
0'
0&
1%
0A
0@
0?
1>
1X
0T
0S
0R
0J
0K
0L
1P
0D
0C
0B
1H
0,
0+
0*
10
#3700000
1(
1A
1R
1J
1D
1,
#3720000
0(
1'
0A
1@
1S
0R
0J
1K
0D
1C
0,
1+
#3740000
1(
1A
1R
1J
1D
1,
#3760000
0(
0'
1&
0A
0@
1?
1T
0S
0R
0J
0K
1L
0D
0C
1B
0,
0+
1*
#3780000
1(
1A
1R
1J
1D
1,
#3800000
0(
1'
0A
1@
1S
0R
0J
1K
0D
1C
0,
1+
#3820000
1(
1A
1R
1J
1D
1,
#3840000
0(
0'
0&
0%
0$
0#
1"
0A
0@
0?
0>
0=
0<
1;
1W
0V
0U
0X
0T
0S
0R
0J
0K
0L
0P
0M
0N
1O
0D
0C
0B
0H
0G
0F
1E
0,
0+
0*
00
0/
0.
1-
#3860000
1(
1A
1R
1J
1D
1,
#3880000
0(
1'
0A
1@
1S
0R
0J
1K
0D
1C
0,
1+
#3900000
1(
1A
1R
1J
1D
1,
#3920000
0(
0'
1&
0A
0@
1?
1T
0S
0R
0J
0K
1L
0D
0C
1B
0,
0+
1*
#3940000
1(
1A
1R
1J
1D
1,
#3960000
0(
1'
0A
1@
1S
0R
0J
1K
0D
1C
0,
1+
#3980000
1(
1A
1R
1J
1D
1,
#4000000
0(
0'
0&
1%
0A
0@
0?
1>
1X
0T
0S
0R
0J
0K
0L
1P
0D
0C
0B
1H
0,
0+
0*
10
#4020000
1(
1A
1R
1J
1D
1,
#4040000
0(
1'
0A
1@
1S
0R
0J
1K
0D
1C
0,
1+
#4060000
1(
1A
1R
1J
1D
1,
#4080000
0(
0'
1&
0A
0@
1?
1T
0S
0R
0J
0K
1L
0D
0C
1B
0,
0+
1*
#4100000
1(
1A
1R
1J
1D
1,
#4120000
0(
1'
0A
1@
1S
0R
0J
1K
0D
1C
0,
1+
#4140000
1(
1A
1R
1J
1D
1,
#4160000
0(
0'
0&
0%
1$
0A
0@
0?
0>
1=
1U
0X
0T
0S
0R
0J
0K
0L
0P
1M
0D
0C
0B
0H
1G
0,
0+
0*
00
1/
#4180000
1(
1A
1R
1J
1D
1,
#4200000
0(
1'
0A
1@
1S
0R
0J
1K
0D
1C
0,
1+
#4220000
1(
1A
1R
1J
1D
1,
#4240000
0(
0'
1&
0A
0@
1?
1T
0S
0R
0J
0K
1L
0D
0C
1B
0,
0+
1*
#4260000
1(
1A
1R
1J
1D
1,
#4280000
0(
1'
0A
1@
1S
0R
0J
1K
0D
1C
0,
1+
#4300000
1(
1A
1R
1J
1D
1,
#4320000
0(
0'
0&
1%
0A
0@
0?
1>
1X
0T
0S
0R
0J
0K
0L
1P
0D
0C
0B
1H
0,
0+
0*
10
#4340000
1(
1A
1R
1J
1D
1,
#4360000
0(
1'
0A
1@
1S
0R
0J
1K
0D
1C
0,
1+
#4380000
1(
1A
1R
1J
1D
1,
#4400000
0(
0'
1&
0A
0@
1?
1T
0S
0R
0J
0K
1L
0D
0C
1B
0,
0+
1*
#4420000
1(
1A
1R
1J
1D
1,
#4440000
0(
1'
0A
1@
1S
0R
0J
1K
0D
1C
0,
1+
#4460000
1(
1A
1R
1J
1D
1,
#4480000
0(
0'
0&
0%
0$
1#
0A
0@
0?
0>
0=
1<
1V
0U
0X
0T
0S
0R
0J
0K
0L
0P
0M
1N
0D
0C
0B
0H
0G
1F
0,
0+
0*
00
0/
1.
#4500000
1(
1A
1R
1J
1D
1,
#4520000
0(
1'
0A
1@
1S
0R
0J
1K
0D
1C
0,
1+
#4540000
1(
1A
1R
1J
1D
1,
#4560000
0(
0'
1&
0A
0@
1?
1T
0S
0R
0J
0K
1L
0D
0C
1B
0,
0+
1*
#4580000
1(
1A
1R
1J
1D
1,
#4600000
0(
1'
0A
1@
1S
0R
0J
1K
0D
1C
0,
1+
#4620000
1(
1A
1R
1J
1D
1,
#4640000
0(
0'
0&
1%
0A
0@
0?
1>
1X
0T
0S
0R
0J
0K
0L
1P
0D
0C
0B
1H
0,
0+
0*
10
#4660000
1(
1A
1R
1J
1D
1,
#4680000
0(
1'
0A
1@
1S
0R
0J
1K
0D
1C
0,
1+
#4700000
1(
1A
1R
1J
1D
1,
#4720000
0(
0'
1&
0A
0@
1?
1T
0S
0R
0J
0K
1L
0D
0C
1B
0,
0+
1*
#4740000
1(
1A
1R
1J
1D
1,
#4760000
0(
1'
0A
1@
1S
0R
0J
1K
0D
1C
0,
1+
#4780000
1(
1A
1R
1J
1D
1,
#4800000
0(
0'
0&
0%
1$
0A
0@
0?
0>
1=
1U
0X
0T
0S
0R
0J
0K
0L
0P
1M
0D
0C
0B
0H
1G
0,
0+
0*
00
1/
#4820000
1(
1A
1R
1J
1D
1,
#4840000
0(
1'
0A
1@
1S
0R
0J
1K
0D
1C
0,
1+
#4860000
1(
1A
1R
1J
1D
1,
#4880000
0(
0'
1&
0A
0@
1?
1T
0S
0R
0J
0K
1L
0D
0C
1B
0,
0+
1*
#4900000
1(
1A
1R
1J
1D
1,
#4920000
0(
1'
0A
1@
1S
0R
0J
1K
0D
1C
0,
1+
#4940000
1(
1A
1R
1J
1D
1,
#4960000
0(
0'
0&
1%
0A
0@
0?
1>
1X
0T
0S
0R
0J
0K
0L
1P
0D
0C
0B
1H
0,
0+
0*
10
#4980000
1(
1A
1R
1J
1D
1,
#5000000
0(
1'
0A
1@
1S
0R
0J
1K
0D
1C
0,
1+
#5020000
1(
1A
1R
1J
1D
1,
#5040000
0(
0'
1&
0A
0@
1?
1T
0S
0R
0J
0K
1L
0D
0C
1B
0,
0+
1*
#5060000
1(
1A
1R
1J
1D
1,
#5080000
0(
1'
0A
1@
1S
0R
0J
1K
0D
1C
0,
1+
#5100000
1(
1A
1R
1J
1D
1,
#5120000
0(
0'
0&
0%
0$
0#
0"
0!
0A
0@
0?
0>
0=
0<
0;
0:
0Y
0W
0V
0U
0X
0T
0S
0R
0J
0K
0L
0P
0M
0N
0O
0Q
0D
0C
0B
0H
0G
0F
0E
0I
0,
0+
0*
00
0/
0.
0-
0)
#5140000
1(
1A
1R
1J
1D
1,
#5160000
0(
1'
0A
1@
1S
0R
0J
1K
0D
1C
0,
1+
#5180000
1(
1A
1R
1J
1D
1,
#5200000
0(
0'
1&
0A
0@
1?
1T
0S
0R
0J
0K
1L
0D
0C
1B
0,
0+
1*
#5220000
1(
1A
1R
1J
1D
1,
#5240000
0(
1'
0A
1@
1S
0R
0J
1K
0D
1C
0,
1+
#5260000
1(
1A
1R
1J
1D
1,
#5280000
0(
0'
0&
1%
0A
0@
0?
1>
1X
0T
0S
0R
0J
0K
0L
1P
0D
0C
0B
1H
0,
0+
0*
10
#5300000
1(
1A
1R
1J
1D
1,
#5320000
0(
1'
0A
1@
1S
0R
0J
1K
0D
1C
0,
1+
#5340000
1(
1A
1R
1J
1D
1,
#5360000
0(
0'
1&
0A
0@
1?
1T
0S
0R
0J
0K
1L
0D
0C
1B
0,
0+
1*
#5380000
1(
1A
1R
1J
1D
1,
#5400000
0(
1'
0A
1@
1S
0R
0J
1K
0D
1C
0,
1+
#5420000
1(
1A
1R
1J
1D
1,
#5440000
0(
0'
0&
0%
1$
0A
0@
0?
0>
1=
1U
0X
0T
0S
0R
0J
0K
0L
0P
1M
0D
0C
0B
0H
1G
0,
0+
0*
00
1/
#5460000
1(
1A
1R
1J
1D
1,
#5480000
0(
1'
0A
1@
1S
0R
0J
1K
0D
1C
0,
1+
#5500000
1(
1A
1R
1J
1D
1,
#5520000
0(
0'
1&
0A
0@
1?
1T
0S
0R
0J
0K
1L
0D
0C
1B
0,
0+
1*
#5540000
1(
1A
1R
1J
1D
1,
#5560000
0(
1'
0A
1@
1S
0R
0J
1K
0D
1C
0,
1+
#5580000
1(
1A
1R
1J
1D
1,
#5600000
0(
0'
0&
1%
0A
0@
0?
1>
1X
0T
0S
0R
0J
0K
0L
1P
0D
0C
0B
1H
0,
0+
0*
10
#5620000
1(
1A
1R
1J
1D
1,
#5640000
0(
1'
0A
1@
1S
0R
0J
1K
0D
1C
0,
1+
#5660000
1(
1A
1R
1J
1D
1,
#5680000
0(
0'
1&
0A
0@
1?
1T
0S
0R
0J
0K
1L
0D
0C
1B
0,
0+
1*
#5700000
1(
1A
1R
1J
1D
1,
#5720000
0(
1'
0A
1@
1S
0R
0J
1K
0D
1C
0,
1+
#5740000
1(
1A
1R
1J
1D
1,
#5760000
0(
0'
0&
0%
0$
1#
0A
0@
0?
0>
0=
1<
1V
0U
0X
0T
0S
0R
0J
0K
0L
0P
0M
1N
0D
0C
0B
0H
0G
1F
0,
0+
0*
00
0/
1.
#5780000
1(
1A
1R
1J
1D
1,
#5800000
0(
1'
0A
1@
1S
0R
0J
1K
0D
1C
0,
1+
#5820000
1(
1A
1R
1J
1D
1,
#5840000
0(
0'
1&
0A
0@
1?
1T
0S
0R
0J
0K
1L
0D
0C
1B
0,
0+
1*
#5860000
1(
1A
1R
1J
1D
1,
#5880000
0(
1'
0A
1@
1S
0R
0J
1K
0D
1C
0,
1+
#5900000
1(
1A
1R
1J
1D
1,
#5920000
0(
0'
0&
1%
0A
0@
0?
1>
1X
0T
0S
0R
0J
0K
0L
1P
0D
0C
0B
1H
0,
0+
0*
10
#5940000
1(
1A
1R
1J
1D
1,
#5960000
0(
1'
0A
1@
1S
0R
0J
1K
0D
1C
0,
1+
#5980000
1(
1A
1R
1J
1D
1,
#6000000
0(
0'
1&
0A
0@
1?
1T
0S
0R
0J
0K
1L
0D
0C
1B
0,
0+
1*
#6020000
1(
1A
1R
1J
1D
1,
#6040000
0(
1'
0A
1@
1S
0R
0J
1K
0D
1C
0,
1+
#6060000
1(
1A
1R
1J
1D
1,
#6080000
0(
0'
0&
0%
1$
0A
0@
0?
0>
1=
1U
0X
0T
0S
0R
0J
0K
0L
0P
1M
0D
0C
0B
0H
1G
0,
0+
0*
00
1/
#6100000
1(
1A
1R
1J
1D
1,
#6120000
0(
1'
0A
1@
1S
0R
0J
1K
0D
1C
0,
1+
#6140000
1(
1A
1R
1J
1D
1,
#6160000
0(
0'
1&
0A
0@
1?
1T
0S
0R
0J
0K
1L
0D
0C
1B
0,
0+
1*
#6180000
1(
1A
1R
1J
1D
1,
#6200000
0(
1'
0A
1@
1S
0R
0J
1K
0D
1C
0,
1+
#6220000
1(
1A
1R
1J
1D
1,
#6240000
0(
0'
0&
1%
0A
0@
0?
1>
1X
0T
0S
0R
0J
0K
0L
1P
0D
0C
0B
1H
0,
0+
0*
10
#6260000
1(
1A
1R
1J
1D
1,
#6280000
0(
1'
0A
1@
1S
0R
0J
1K
0D
1C
0,
1+
#6300000
1(
1A
1R
1J
1D
1,
#6320000
0(
0'
1&
0A
0@
1?
1T
0S
0R
0J
0K
1L
0D
0C
1B
0,
0+
1*
#6340000
1(
1A
1R
1J
1D
1,
#6360000
0(
1'
0A
1@
1S
0R
0J
1K
0D
1C
0,
1+
#6380000
1(
1A
1R
1J
1D
1,
#6400000
0(
0'
0&
0%
0$
0#
1"
0A
0@
0?
0>
0=
0<
1;
1W
0V
0U
0X
0T
0S
0R
0J
0K
0L
0P
0M
0N
1O
0D
0C
0B
0H
0G
0F
1E
0,
0+
0*
00
0/
0.
1-
#6420000
1(
1A
1R
1J
1D
1,
#6440000
0(
1'
0A
1@
1S
0R
0J
1K
0D
1C
0,
1+
#6460000
1(
1A
1R
1J
1D
1,
#6480000
0(
0'
1&
0A
0@
1?
1T
0S
0R
0J
0K
1L
0D
0C
1B
0,
0+
1*
#6500000
1(
1A
1R
1J
1D
1,
#6520000
0(
1'
0A
1@
1S
0R
0J
1K
0D
1C
0,
1+
#6540000
1(
1A
1R
1J
1D
1,
#6560000
0(
0'
0&
1%
0A
0@
0?
1>
1X
0T
0S
0R
0J
0K
0L
1P
0D
0C
0B
1H
0,
0+
0*
10
#6580000
1(
1A
1R
1J
1D
1,
#6600000
0(
1'
0A
1@
1S
0R
0J
1K
0D
1C
0,
1+
#6620000
1(
1A
1R
1J
1D
1,
#6640000
0(
0'
1&
0A
0@
1?
1T
0S
0R
0J
0K
1L
0D
0C
1B
0,
0+
1*
#6660000
1(
1A
1R
1J
1D
1,
#6680000
0(
1'
0A
1@
1S
0R
0J
1K
0D
1C
0,
1+
#6700000
1(
1A
1R
1J
1D
1,
