Altera Tutorial/simulation/qsim/Altera_Tutorial.msim.vcd
$comment
	File created using the following command:
		vcd file Altera_Tutorial.msim.vcd -direction
$end
$date
	Wed Mar 29 12:59:32 2023
$end
$version
	ModelSim Version 10.5b
$end
$timescale
	1ps
$end

$scope module data_spliter_vhd_vec_tst $end
$var wire 1 ! data [7] $end
$var wire 1 " data [6] $end
$var wire 1 # data [5] $end
$var wire 1 $ data [4] $end
$var wire 1 % data [3] $end
$var wire 1 & data [2] $end
$var wire 1 ' data [1] $end
$var wire 1 ( data [0] $end
$var wire 1 ) Laser $end
$var wire 1 * motor [2] $end
$var wire 1 + motor [1] $end
$var wire 1 , motor [0] $end
$var wire 1 - servo [5] $end
$var wire 1 . servo [4] $end
$var wire 1 / servo [3] $end
$var wire 1 0 speedMotor $end

$scope module i1 $end
$var wire 1 1 gnd $end
$var wire 1 2 vcc $end
$var wire 1 3 unknown $end
$var wire 1 4 devoe $end
$var wire 1 5 devclrn $end
$var wire 1 6 devpor $end
$var wire 1 7 ww_devoe $end
$var wire 1 8 ww_devclrn $end
$var wire 1 9 ww_devpor $end
$var wire 1 : ww_data [7] $end
$var wire 1 ; ww_data [6] $end
$var wire 1 < ww_data [5] $end
$var wire 1 = ww_data [4] $end
$var wire 1 > ww_data [3] $end
$var wire 1 ? ww_data [2] $end
$var wire 1 @ ww_data [1] $end
$var wire 1 A ww_data [0] $end
$var wire 1 B ww_motor [2] $end
$var wire 1 C ww_motor [1] $end
$var wire 1 D ww_motor [0] $end
$var wire 1 E ww_servo [5] $end
$var wire 1 F ww_servo [4] $end
$var wire 1 G ww_servo [3] $end
$var wire 1 H ww_speedMotor $end
$var wire 1 I ww_Laser $end
$var wire 1 J \motor[0]~output_o\ $end
$var wire 1 K \motor[1]~output_o\ $end
$var wire 1 L \motor[2]~output_o\ $end
$var wire 1 M \servo[3]~output_o\ $end
$var wire 1 N \servo[4]~output_o\ $end
$var wire 1 O \servo[5]~output_o\ $end
$var wire 1 P \speedMotor~output_o\ $end
$var wire 1 Q \Laser~output_o\ $end
$var wire 1 R \data[0]~input_o\ $end
$var wire 1 S \data[1]~input_o\ $end
$var wire 1 T \data[2]~input_o\ $end
$var wire 1 U \data[4]~input_o\ $end
$var wire 1 V \data[5]~input_o\ $end
$var wire 1 W \data[6]~input_o\ $end
$var wire 1 X \data[3]~input_o\ $end
$var wire 1 Y \data[7]~input_o\ $end
$upscope $end
$upscope $end
$enddefinitions $end
#0
$dumpvars
0)
00
01
12
x3
14
15
16
17
18
19
0H
0I
0J
0K
0L
0M
0N
0O
0P
0Q
0R
0S
0T
0U
0V
0W
0X
0Y
0!
0"
0#
0$
0%
0&
0'
0(
0*
0+
0,
0-
0.
0/
0:
0;
0<
0=
0>
0?
0@
0A
0B
0C
0D
0E
0F
0G
$end
#20000
1(
1A
1R
1J
1D
1,
#40000
0(
1'
0A
1@
1S
0R
0J
1K
0D
1C
0,
1+
#60000
1(
1A
1R
1J
1D
1,
#80000
0(
0'
1&
0A
0@
1?
1T
0S
0R
0J
0K
1L
0D
0C
1B
0,
0+
1*
#100000
1(
1A
1R
1J
1D
1,
#120000
0(
1'
0A
1@
1S
0R
0J
1K
0D
1C
0,
1+
#140000
1(
1A
1R
1J
1D
1,
#160000
0(
0'
0&
1%
0A
0@
0?
1>
1X
0T
0S
0R
0J
0K
0L
1P
0D
0C
0B
1H
0,
0+
0*
10
#180000
1(
1A
1R
1J
1D
1,
#200000
0(
1'
0A
1@
1S
0R
0J
1K
0D
1C
0,
1+
#220000
1(
1A
1R
1J
1D
1,
#240000
0(
0'
1&
0A
0@
1?
1T
0S
0R
0J
0K
1L
0D
0C
1B
0,
0+
1*
#260000
1(
1A
1R
1J
1D
1,
#280000
0(
1'
0A
1@
1S
0R
0J
1K
0D
1C
0,
1+
#300000
1(
1A
1R
1J
1D
1,
#320000
0(
0'
0&
0%
1$
0A
0@
0?
0>
1=
1U
0X
0T
0S
0R
0J
0K
0L
0P
1M
0D
0C
0B
0H
1G
0,
0+
0*
00
1/
#340000
1(
1A
1R
1J
1D
1,
#360000
0(
1'
0A
1@
1S
0R
0J
1K
0D
1C
0,
1+
#380000
1(
1A
1R
1J
1D
1,
#400000
0(
0'
1&
0A
0@
1?
1T
0S
0R
0J
0K
1L
0D
0C
1B
0,
0+
1*
#420000
1(
1A
1R
1J
1D
1,
#440000
0(
1'
0A
1@
1S
0R
0J
1K
0D
1C
0,
1+
#460000
1(
1A
1R
1J
1D
1,
#480000
0(
0'
0&
1%
0A
0@
0?
1>
1X
0T
0S
0R
0J
0K
0L
1P
0D
0C
0B
1H
0,
0+
0*
10
#500000
1(
1A
1R
1J
1D
1,
#520000
0(
1'
0A
1@
1S
0R
0J
1K
0D
1C
0,
1+
#540000
1(
1A
1R
1J
1D
1,
#560000
0(
0'
1&
0A
0@
1?
1T
0S
0R
0J
0K
1L
0D
0C
1B
0,
0+
1*
#580000
1(
1A
1R
1J
1D
1,
#600000
0(
1'
0A
1@
1S
0R
0J
1K
0D
1C
0,
1+
#620000
1(
1A
1R
1J
1D
1,
#640000
0(
0'
0&
0%
0$
1#
0A
0@
0?
0>
0=
1<
1V
0U
0X
0T
0S
0R
0J
0K
0L
0P
0M
1N
0D
0C
0B
0H
0G
1F
0,
0+
0*
00
0/
1.
#660000
1(
1A
1R
1J
1D
1,
#680000
0(
1'
0A
1@
1S
0R
0J
1K
0D
1C
0,
1+
#700000
1(
1A
1R
1J
1D
1,
#720000
0(
0'
1&
0A
0@
1?
1T
0S
0R
0J
0K
1L
0D
0C
1B
0,
0+
1*
#740000
1(
1A
1R
1J
1D
1,
#760000
0(
1'
0A
1@
1S
0R
0J
1K
0D
1C
0,
1+
#780000
1(
1A
1R
1J
1D
1,
#800000
0(
0'
0&
1%
0A
0@
0?
1>
1X
0T
0S
0R
0J
0K
0L
1P
0D
0C
0B
1H
0,
0+
0*
10
#820000
1(
1A
1R
1J
1D
1,
#840000
0(
1'
0A
1@
1S
0R
0J
1K
0D
1C
0,
1+
#860000
1(
1A
1R
1J
1D
1,
#880000
0(
0'
1&
0A
0@
1?
1T
0S
0R
0J
0K
1L
0D
0C
1B
0,
0+
1*
#900000
1(
1A
1R
1J
1D
1,
#920000
0(
1'
0A
1@
1S
0R
0J
1K
0D
1C
0,
1+
#940000
1(
1A
1R
1J
1D
1,
#960000
0(
0'
0&
0%
1$
0A
0@
0?
0>
1=
1U
0X
0T
0S
0R
0J
0K
0L
0P
1M
0D
0C
0B
0H
1G
0,
0+
0*
00
1/
#980000
1(
1A
1R
1J
1D
1,
