Altera Tutorial/simulation/qsim/Altera_Tutorial.msim.vcd
$comment
	File created using the following command:
		vcd file Altera_Tutorial.msim.vcd -direction
$end
$date
	Thu Oct 06 19:38:19 2022
$end
$version
	ModelSim Version 10.5b
$end
$timescale
	1ps
$end

$scope module pwm_ctrl_example_vhd_vec_tst $end
$var wire 1 ! LwheelB $end
$var wire 1 " LwheelF $end
$var wire 1 # Ma0 $end
$var wire 1 $ Ma1 $end
$var wire 1 % Mb0 $end
$var wire 1 & Mb1 $end
$var wire 1 ' PWM_Motor_1KHz $end
$var wire 1 ( RwheelB $end
$var wire 1 ) RwheelF $end

$scope module i1 $end
$var wire 1 * gnd $end
$var wire 1 + vcc $end
$var wire 1 , unknown $end
$var wire 1 - devoe $end
$var wire 1 . devclrn $end
$var wire 1 / devpor $end
$var wire 1 0 ww_devoe $end
$var wire 1 1 ww_devclrn $end
$var wire 1 2 ww_devpor $end
$var wire 1 3 ww_RwheelF $end
$var wire 1 4 ww_PWM_Motor_1KHz $end
$var wire 1 5 ww_Ma0 $end
$var wire 1 6 ww_Ma1 $end
$var wire 1 7 ww_Mb0 $end
$var wire 1 8 ww_Mb1 $end
$var wire 1 9 ww_LwheelF $end
$var wire 1 : ww_LwheelB $end
$var wire 1 ; ww_RwheelB $end
$var wire 1 < \RwheelF~output_o\ $end
$var wire 1 = \LwheelF~output_o\ $end
$var wire 1 > \LwheelB~output_o\ $end
$var wire 1 ? \RwheelB~output_o\ $end
$var wire 1 @ \PWM_Motor_1KHz~input_o\ $end
$var wire 1 A \Mb1~input_o\ $end
$var wire 1 B \Mb0~input_o\ $end
$var wire 1 C \inst|RwheelF~0_combout\ $end
$var wire 1 D \Ma1~input_o\ $end
$var wire 1 E \Ma0~input_o\ $end
$var wire 1 F \inst|LwheelF~0_combout\ $end
$var wire 1 G \inst|LwheelB~0_combout\ $end
$var wire 1 H \inst|RwheelB~0_combout\ $end
$upscope $end
$upscope $end
$enddefinitions $end
#0
$dumpvars
0!
0"
0#
0$
0%
0&
0'
0(
0)
0*
1+
x,
1-
1.
1/
10
11
12
03
04
05
06
07
08
09
0:
0;
0<
0=
0>
0?
0@
0A
0B
0C
0D
0E
0F
0G
0H
$end
#4000
1'
14
1@
#20000
0'
04
0@
#24000
1'
14
1@
#40000
0'
1$
1&
04
16
18
1A
1D
0@
#44000
1'
14
1@
1C
1F
1=
1<
19
13
1"
1)
#60000
0'
04
0@
0C
0F
0=
0<
09
03
0"
0)
#64000
1'
14
1@
1C
1F
1=
1<
19
13
1"
1)
#80000
0'
0$
0&
1#
1%
04
06
08
15
17
1B
1E
0A
0D
0@
0F
0C
0<
0=
03
09
0)
0"
#84000
1'
14
1@
1G
1H
1?
1>
1;
1:
1(
1!
#100000
0'
04
0@
0G
0H
0?
0>
0;
0:
0(
0!
#104000
1'
14
1@
1G
1H
1?
1>
1;
1:
1(
1!
#120000
0'
1$
1&
04
16
18
1A
1D
0@
0G
0H
0?
0>
0;
0:
0(
0!
#124000
1'
14
1@
#140000
0'
04
0@
#144000
1'
14
1@
#160000
0'
0$
0&
0#
0%
04
06
08
05
07
0B
0E
0A
0D
0@
#164000
1'
14
1@
#180000
0'
04
0@
#184000
1'
14
1@
#200000
0'
1$
1&
04
16
18
1A
1D
0@
#204000
1'
14
1@
1C
1F
1=
1<
19
13
1"
1)
#220000
0'
04
0@
0C
0F
0=
0<
09
03
0"
0)
#224000
1'
14
1@
1C
1F
1=
1<
19
13
1"
1)
#240000
0'
0$
0&
1#
1%
04
06
08
15
17
1B
1E
0A
0D
0@
0F
0C
0<
0=
03
09
0)
0"
#244000
1'
14
1@
1G
1H
1?
1>
1;
1:
1(
1!
#260000
0'
04
0@
0G
0H
0?
0>
0;
0:
0(
0!
#264000
1'
14
1@
1G
1H
1?
1>
1;
1:
1(
1!
#280000
0'
1$
1&
04
16
18
1A
1D
0@
0G
0H
0?
0>
0;
0:
0(
0!
#284000
1'
14
1@
#300000
0'
04
0@
#304000
1'
14
1@
#320000
0'
0$
0&
0#
0%
04
06
08
05
07
0B
0E
0A
0D
0@
#324000
1'
14
1@
#340000
0'
04
0@
#344000
1'
14
1@
#360000
0'
1$
1&
04
16
18
1A
1D
0@
#364000
1'
14
1@
1C
1F
1=
1<
19
13
1"
1)
#380000
0'
04
0@
0C
0F
0=
0<
09
03
0"
0)
#384000
1'
14
1@
1C
1F
1=
1<
19
13
1"
1)
#400000
0'
0$
0&
1#
1%
04
06
08
15
17
1B
1E
0A
0D
0@
0F
0C
0<
0=
03
09
0)
0"
#404000
1'
14
1@
1G
1H
1?
1>
1;
1:
1(
1!
#420000
0'
04
0@
0G
0H
0?
0>
0;
0:
0(
0!
#424000
1'
14
1@
1G
1H
1?
1>
1;
1:
1(
1!
#440000
0'
1$
1&
04
16
18
1A
1D
0@
0G
0H
0?
0>
0;
0:
0(
0!
#444000
1'
14
1@
#460000
0'
04
0@
#464000
1'
14
1@
#480000
0'
0$
0&
0#
0%
04
06
08
05
07
0B
0E
0A
0D
0@
#484000
1'
14
1@
#500000
0'
04
0@
#504000
1'
14
1@
#520000
0'
1$
1&
04
16
18
1A
1D
0@
#524000
1'
14
1@
1C
1F
1=
1<
19
13
1"
1)
#540000
0'
04
0@
0C
0F
0=
0<
09
03
0"
0)
#544000
1'
14
1@
1C
1F
1=
1<
19
13
1"
1)
#560000
0'
0$
0&
1#
1%
04
06
08
15
17
1B
1E
0A
0D
0@
0F
0C
0<
0=
03
09
0)
0"
#564000
1'
14
1@
1G
1H
1?
1>
1;
1:
1(
1!
#580000
0'
04
0@
0G
0H
0?
0>
0;
0:
0(
0!
#584000
1'
14
1@
1G
1H
1?
1>
1;
1:
1(
1!
#600000
0'
1$
1&
04
16
18
1A
1D
0@
0G
0H
0?
0>
0;
0:
0(
0!
#604000
1'
14
1@
#620000
0'
04
0@
#624000
1'
14
1@
#640000
0'
0$
0&
0#
0%
04
06
08
05
07
0B
0E
0A
0D
0@
#644000
1'
14
1@
#660000
0'
04
0@
#664000
1'
14
1@
#680000
0'
1$
1&
04
16
18
1A
1D
0@
#684000
1'
14
1@
1C
1F
1=
1<
19
13
1"
1)
#700000
0'
04
0@
0C
0F
0=
0<
09
03
0"
0)
#704000
1'
14
1@
1C
1F
1=
1<
19
13
1"
1)
#720000
0'
0$
0&
1#
1%
04
06
08
15
17
1B
1E
0A
0D
0@
0F
0C
0<
0=
03
09
0)
0"
#724000
1'
14
1@
1G
1H
1?
1>
1;
1:
1(
1!
#740000
0'
04
0@
0G
0H
0?
0>
0;
0:
0(
0!
#744000
1'
14
1@
1G
1H
1?
1>
1;
1:
1(
1!
#760000
0'
1$
1&
04
16
18
1A
1D
0@
0G
0H
0?
0>
0;
0:
0(
0!
#764000
1'
14
1@
#780000
0'
04
0@
#784000
1'
14
1@
#800000
0'
0$
0&
0#
0%
04
06
08
05
07
0B
0E
0A
0D
0@
#804000
1'
14
1@
#820000
0'
04
0@
#824000
1'
14
1@
#840000
0'
1$
1&
04
16
18
1A
1D
0@
#844000
1'
14
1@
1C
1F
1=
1<
19
13
1"
1)
#860000
0'
04
0@
0C
0F
0=
0<
09
03
0"
0)
#864000
1'
14
1@
1C
1F
1=
1<
19
13
1"
1)
#880000
0'
0$
0&
1#
1%
04
06
08
15
17
1B
1E
0A
0D
0@
0F
0C
0<
0=
03
09
0)
0"
#884000
1'
14
1@
1G
1H
1?
1>
1;
1:
1(
1!
#900000
0'
04
0@
0G
0H
0?
0>
0;
0:
0(
0!
#904000
1'
14
1@
1G
1H
1?
1>
1;
1:
1(
1!
#920000
0'
1$
1&
04
16
18
1A
1D
0@
0G
0H
0?
0>
0;
0:
0(
0!
#924000
1'
14
1@
#940000
0'
04
0@
#944000
1'
14
1@
#960000
0'
0$
0&
0#
0%
04
06
08
05
07
0B
0E
0A
0D
0@
#964000
1'
14
1@
#980000
0'
04
0@
#984000
1'
14
1@
