Altera Tutorial/simulation/qsim/Altera_Tutorial.msim.vcd
$comment
	File created using the following command:
		vcd file Altera_Tutorial.msim.vcd -direction
$end
$date
	Sat Oct 01 22:22:15 2022
$end
$version
	ModelSim Version 10.5b
$end
$timescale
	1ps
$end

$scope module altera_tutorial_schematic_vhd_vec_tst $end
$var wire 1 ! breatheLED $end
$var wire 1 " clk50Mhz $end
$var wire 1 # d [7] $end
$var wire 1 $ d [6] $end
$var wire 1 % d [5] $end
$var wire 1 & d [4] $end
$var wire 1 ' d [3] $end
$var wire 1 ( d [2] $end
$var wire 1 ) d [1] $end
$var wire 1 * d [0] $end
$var wire 1 + esp_rx $end
$var wire 1 , esp_tx $end
$var wire 1 - M_segH [6] $end
$var wire 1 . M_segH [5] $end
$var wire 1 / M_segH [4] $end
$var wire 1 0 M_segH [3] $end
$var wire 1 1 M_segH [2] $end
$var wire 1 2 M_segH [1] $end
$var wire 1 3 M_segH [0] $end
$var wire 1 4 M_segL [6] $end
$var wire 1 5 M_segL [5] $end
$var wire 1 6 M_segL [4] $end
$var wire 1 7 M_segL [3] $end
$var wire 1 8 M_segL [2] $end
$var wire 1 9 M_segL [1] $end
$var wire 1 : M_segL [0] $end
$var wire 1 ; pwm_output $end
$var wire 1 < r_segH [6] $end
$var wire 1 = r_segH [5] $end
$var wire 1 > r_segH [4] $end
$var wire 1 ? r_segH [3] $end
$var wire 1 @ r_segH [2] $end
$var wire 1 A r_segH [1] $end
$var wire 1 B r_segH [0] $end
$var wire 1 C r_segL [6] $end
$var wire 1 D r_segL [5] $end
$var wire 1 E r_segL [4] $end
$var wire 1 F r_segL [3] $end
$var wire 1 G r_segL [2] $end
$var wire 1 H r_segL [1] $end
$var wire 1 I r_segL [0] $end

$scope module i1 $end
$var wire 1 J gnd $end
$var wire 1 K vcc $end
$var wire 1 L unknown $end
$var wire 1 M devoe $end
$var wire 1 N devclrn $end
$var wire 1 O devpor $end
$var wire 1 P ww_devoe $end
$var wire 1 Q ww_devclrn $end
$var wire 1 R ww_devpor $end
$var wire 1 S ww_esp_rx $end
$var wire 1 T ww_clk50Mhz $end
$var wire 1 U ww_d [7] $end
$var wire 1 V ww_d [6] $end
$var wire 1 W ww_d [5] $end
$var wire 1 X ww_d [4] $end
$var wire 1 Y ww_d [3] $end
$var wire 1 Z ww_d [2] $end
$var wire 1 [ ww_d [1] $end
$var wire 1 \ ww_d [0] $end
$var wire 1 ] ww_breatheLED $end
$var wire 1 ^ ww_pwm_output $end
$var wire 1 _ ww_M_segH [6] $end
$var wire 1 ` ww_M_segH [5] $end
$var wire 1 a ww_M_segH [4] $end
$var wire 1 b ww_M_segH [3] $end
$var wire 1 c ww_M_segH [2] $end
$var wire 1 d ww_M_segH [1] $end
$var wire 1 e ww_M_segH [0] $end
$var wire 1 f ww_M_segL [6] $end
$var wire 1 g ww_M_segL [5] $end
$var wire 1 h ww_M_segL [4] $end
$var wire 1 i ww_M_segL [3] $end
$var wire 1 j ww_M_segL [2] $end
$var wire 1 k ww_M_segL [1] $end
$var wire 1 l ww_M_segL [0] $end
$var wire 1 m ww_r_segH [6] $end
$var wire 1 n ww_r_segH [5] $end
$var wire 1 o ww_r_segH [4] $end
$var wire 1 p ww_r_segH [3] $end
$var wire 1 q ww_r_segH [2] $end
$var wire 1 r ww_r_segH [1] $end
$var wire 1 s ww_r_segH [0] $end
$var wire 1 t ww_esp_tx $end
$var wire 1 u ww_r_segL [6] $end
$var wire 1 v ww_r_segL [5] $end
$var wire 1 w ww_r_segL [4] $end
$var wire 1 x ww_r_segL [3] $end
$var wire 1 y ww_r_segL [2] $end
$var wire 1 z ww_r_segL [1] $end
$var wire 1 { ww_r_segL [0] $end
$var wire 1 | \esp_rx~output_o\ $end
$var wire 1 } \breatheLED~output_o\ $end
$var wire 1 ~ \pwm_output~output_o\ $end
$var wire 1 !! \M_segH[6]~output_o\ $end
$var wire 1 "! \M_segH[5]~output_o\ $end
$var wire 1 #! \M_segH[4]~output_o\ $end
$var wire 1 $! \M_segH[3]~output_o\ $end
$var wire 1 %! \M_segH[2]~output_o\ $end
$var wire 1 &! \M_segH[1]~output_o\ $end
$var wire 1 '! \M_segH[0]~output_o\ $end
$var wire 1 (! \M_segL[6]~output_o\ $end
$var wire 1 )! \M_segL[5]~output_o\ $end
$var wire 1 *! \M_segL[4]~output_o\ $end
$var wire 1 +! \M_segL[3]~output_o\ $end
$var wire 1 ,! \M_segL[2]~output_o\ $end
$var wire 1 -! \M_segL[1]~output_o\ $end
$var wire 1 .! \M_segL[0]~output_o\ $end
$var wire 1 /! \r_segH[6]~output_o\ $end
$var wire 1 0! \r_segH[5]~output_o\ $end
$var wire 1 1! \r_segH[4]~output_o\ $end
$var wire 1 2! \r_segH[3]~output_o\ $end
$var wire 1 3! \r_segH[2]~output_o\ $end
$var wire 1 4! \r_segH[1]~output_o\ $end
$var wire 1 5! \r_segH[0]~output_o\ $end
$var wire 1 6! \r_segL[6]~output_o\ $end
$var wire 1 7! \r_segL[5]~output_o\ $end
$var wire 1 8! \r_segL[4]~output_o\ $end
$var wire 1 9! \r_segL[3]~output_o\ $end
$var wire 1 :! \r_segL[2]~output_o\ $end
$var wire 1 ;! \r_segL[1]~output_o\ $end
$var wire 1 <! \r_segL[0]~output_o\ $end
$var wire 1 =! \clk50Mhz~input_o\ $end
$var wire 1 >! \3|cnt[0]~8_combout\ $end
$var wire 1 ?! \3|cnt[0]~9\ $end
$var wire 1 @! \3|cnt[1]~10_combout\ $end
$var wire 1 A! \3|cnt[1]~11\ $end
$var wire 1 B! \3|cnt[2]~12_combout\ $end
$var wire 1 C! \3|cnt[2]~13\ $end
$var wire 1 D! \3|cnt[3]~14_combout\ $end
$var wire 1 E! \3|cnt[3]~15\ $end
$var wire 1 F! \3|cnt[4]~16_combout\ $end
$var wire 1 G! \3|LessThan0~0_combout\ $end
$var wire 1 H! \3|cnt[4]~17\ $end
$var wire 1 I! \3|cnt[5]~18_combout\ $end
$var wire 1 J! \3|cnt[5]~19\ $end
$var wire 1 K! \3|cnt[6]~20_combout\ $end
$var wire 1 L! \3|cnt[6]~21\ $end
$var wire 1 M! \3|cnt[7]~22_combout\ $end
$var wire 1 N! \3|LessThan0~1_combout\ $end
$var wire 1 O! \3|fout~0_combout\ $end
$var wire 1 P! \3|fout~q\ $end
$var wire 1 Q! \inst|cnt[0]~8_combout\ $end
$var wire 1 R! \inst7|Add0~0_combout\ $end
$var wire 1 S! \inst7|Add0~1\ $end
$var wire 1 T! \inst7|Add0~2_combout\ $end
$var wire 1 U! \inst7|Add0~3\ $end
$var wire 1 V! \inst7|Add0~4_combout\ $end
$var wire 1 W! \inst7|Add0~5\ $end
$var wire 1 X! \inst7|Add0~6_combout\ $end
$var wire 1 Y! \inst7|Add0~7\ $end
$var wire 1 Z! \inst7|Add0~8_combout\ $end
$var wire 1 [! \inst7|Add0~9\ $end
$var wire 1 \! \inst7|Add0~10_combout\ $end
$var wire 1 ]! \inst7|Add0~11\ $end
$var wire 1 ^! \inst7|Add0~12_combout\ $end
$var wire 1 _! \inst7|Add0~13\ $end
$var wire 1 `! \inst7|Add0~14_combout\ $end
$var wire 1 a! \inst7|count~2_combout\ $end
$var wire 1 b! \inst7|Add0~15\ $end
$var wire 1 c! \inst7|Add0~16_combout\ $end
$var wire 1 d! \inst7|Add0~17\ $end
$var wire 1 e! \inst7|Add0~18_combout\ $end
$var wire 1 f! \inst7|Add0~19\ $end
$var wire 1 g! \inst7|Add0~20_combout\ $end
$var wire 1 h! \inst7|Add0~21\ $end
$var wire 1 i! \inst7|Add0~22_combout\ $end
$var wire 1 j! \inst7|Add0~23\ $end
$var wire 1 k! \inst7|Add0~24_combout\ $end
$var wire 1 l! \inst7|count~1_combout\ $end
$var wire 1 m! \inst7|Add0~25\ $end
$var wire 1 n! \inst7|Add0~26_combout\ $end
$var wire 1 o! \inst7|count~0_combout\ $end
$var wire 1 p! \inst7|Equal0~0_combout\ $end
$var wire 1 q! \inst7|Equal0~1_combout\ $end
$var wire 1 r! \inst7|Equal0~2_combout\ $end
$var wire 1 s! \inst7|Add0~27\ $end
$var wire 1 t! \inst7|Add0~28_combout\ $end
$var wire 1 u! \inst7|count~3_combout\ $end
$var wire 1 v! \inst7|Add0~29\ $end
$var wire 1 w! \inst7|Add0~30_combout\ $end
$var wire 1 x! \inst7|count~4_combout\ $end
$var wire 1 y! \inst7|Equal0~3_combout\ $end
$var wire 1 z! \inst7|Equal0~4_combout\ $end
$var wire 1 {! \inst7|Add0~31\ $end
$var wire 1 |! \inst7|Add0~32_combout\ $end
$var wire 1 }! \inst7|Add0~33\ $end
$var wire 1 ~! \inst7|Add0~34_combout\ $end
$var wire 1 !" \inst7|count~5_combout\ $end
$var wire 1 "" \inst7|Add0~35\ $end
$var wire 1 #" \inst7|Add0~36_combout\ $end
$var wire 1 $" \inst7|Add0~37\ $end
$var wire 1 %" \inst7|Add0~38_combout\ $end
$var wire 1 &" \inst7|count~6_combout\ $end
$var wire 1 '" \inst7|Equal0~5_combout\ $end
$var wire 1 (" \inst7|Add0~39\ $end
$var wire 1 )" \inst7|Add0~40_combout\ $end
$var wire 1 *" \inst7|count~7_combout\ $end
$var wire 1 +" \inst7|Add0~41\ $end
$var wire 1 ," \inst7|Add0~42_combout\ $end
$var wire 1 -" \inst7|count~8_combout\ $end
$var wire 1 ." \inst7|Add0~43\ $end
$var wire 1 /" \inst7|Add0~44_combout\ $end
$var wire 1 0" \inst7|count~9_combout\ $end
$var wire 1 1" \inst7|Add0~45\ $end
$var wire 1 2" \inst7|Add0~46_combout\ $end
$var wire 1 3" \inst7|count~10_combout\ $end
$var wire 1 4" \inst7|Equal0~6_combout\ $end
$var wire 1 5" \inst7|Add0~47\ $end
$var wire 1 6" \inst7|Add0~48_combout\ $end
$var wire 1 7" \inst7|Add0~49\ $end
$var wire 1 8" \inst7|Add0~50_combout\ $end
$var wire 1 9" \inst7|count~11_combout\ $end
$var wire 1 :" \inst7|Equal0~7_combout\ $end
$var wire 1 ;" \inst7|Equal0~8_combout\ $end
$var wire 1 <" \inst7|pulse~0_combout\ $end
$var wire 1 =" \inst7|pulse~q\ $end
$var wire 1 >" \inst|Equal0~0_combout\ $end
$var wire 1 ?" \inst|Equal0~1_combout\ $end
$var wire 1 @" \inst|process_0~0_combout\ $end
$var wire 1 A" \inst|LessThan9~0_combout\ $end
$var wire 1 B" \inst|cnt[0]~9\ $end
$var wire 1 C" \inst|cnt[1]~10_combout\ $end
$var wire 1 D" \inst|cnt[1]~11\ $end
$var wire 1 E" \inst|cnt[2]~12_combout\ $end
$var wire 1 F" \inst|cnt[2]~13\ $end
$var wire 1 G" \inst|cnt[3]~14_combout\ $end
$var wire 1 H" \inst|cnt[3]~15\ $end
$var wire 1 I" \inst|cnt[4]~16_combout\ $end
$var wire 1 J" \inst|cnt[4]~17\ $end
$var wire 1 K" \inst|cnt[5]~18_combout\ $end
$var wire 1 L" \inst|cnt[5]~19\ $end
$var wire 1 M" \inst|cnt[6]~20_combout\ $end
$var wire 1 N" \inst|cnt[6]~21\ $end
$var wire 1 O" \inst|cnt[7]~22_combout\ $end
$var wire 1 P" \inst|so~0_combout\ $end
$var wire 1 Q" \d[4]~input_o\ $end
$var wire 1 R" \d[3]~input_o\ $end
$var wire 1 S" \inst|so~1_combout\ $end
$var wire 1 T" \d[6]~input_o\ $end
$var wire 1 U" \d[5]~input_o\ $end
$var wire 1 V" \inst|so~2_combout\ $end
$var wire 1 W" \inst|so~3_combout\ $end
$var wire 1 X" \d[0]~input_o\ $end
$var wire 1 Y" \d[7]~input_o\ $end
$var wire 1 Z" \inst|so~4_combout\ $end
$var wire 1 [" \d[2]~input_o\ $end
$var wire 1 \" \d[1]~input_o\ $end
$var wire 1 ]" \inst|so~5_combout\ $end
$var wire 1 ^" \inst|so~6_combout\ $end
$var wire 1 _" \inst|so~7_combout\ $end
$var wire 1 `" \inst|so~q\ $end
$var wire 1 a" \inst9|count[0]~3_combout\ $end
$var wire 1 b" \inst9|count~2_combout\ $end
$var wire 1 c" \inst9|count~1_combout\ $end
$var wire 1 d" \inst9|count[2]~0_combout\ $end
$var wire 1 e" \inst9|pulse~0_combout\ $end
$var wire 1 f" \inst9|pulse~1_combout\ $end
$var wire 1 g" \inst9|pulse~q\ $end
$var wire 1 h" \inst1|Mux0~0_combout\ $end
$var wire 1 i" \inst1|Mux1~0_combout\ $end
$var wire 1 j" \inst1|Mux2~0_combout\ $end
$var wire 1 k" \inst1|Mux3~0_combout\ $end
$var wire 1 l" \inst1|Mux4~0_combout\ $end
$var wire 1 m" \inst1|Mux5~0_combout\ $end
$var wire 1 n" \inst1|Mux6~0_combout\ $end
$var wire 1 o" \inst2|Mux0~0_combout\ $end
$var wire 1 p" \inst2|Mux1~0_combout\ $end
$var wire 1 q" \inst2|Mux2~0_combout\ $end
$var wire 1 r" \inst2|Mux3~0_combout\ $end
$var wire 1 s" \inst2|Mux4~0_combout\ $end
$var wire 1 t" \inst2|Mux5~0_combout\ $end
$var wire 1 u" \inst2|Mux6~0_combout\ $end
$var wire 1 v" \esp_tx~input_o\ $end
$var wire 1 w" \5|cnt[0]~8_combout\ $end
$var wire 1 x" \5|cnt[5]~19\ $end
$var wire 1 y" \5|cnt[6]~20_combout\ $end
$var wire 1 z" \5|LessThan0~0_combout\ $end
$var wire 1 {" \5|start~q\ $end
$var wire 1 |" \5|cnt[6]~21\ $end
$var wire 1 }" \5|cnt[7]~22_combout\ $end
$var wire 1 ~" \5|tmp[7]~3_combout\ $end
$var wire 1 !# \5|Equal11~0_combout\ $end
$var wire 1 "# \5|Equal11~1_combout\ $end
$var wire 1 ## \5|cnt[0]~9\ $end
$var wire 1 $# \5|cnt[1]~10_combout\ $end
$var wire 1 %# \5|cnt[1]~11\ $end
$var wire 1 &# \5|cnt[2]~12_combout\ $end
$var wire 1 '# \5|cnt[2]~13\ $end
$var wire 1 (# \5|cnt[3]~14_combout\ $end
$var wire 1 )# \5|cnt[3]~15\ $end
$var wire 1 *# \5|cnt[4]~16_combout\ $end
$var wire 1 +# \5|cnt[4]~17\ $end
$var wire 1 ,# \5|cnt[5]~18_combout\ $end
$var wire 1 -# \5|tmp[7]~2_combout\ $end
$var wire 1 .# \5|data[3]~4_combout\ $end
$var wire 1 /# \5|tmp[6]~4_combout\ $end
$var wire 1 0# \5|tmp[0]~5_combout\ $end
$var wire 1 1# \5|data[3]~0_combout\ $end
$var wire 1 2# \5|start_bit~0_combout\ $end
$var wire 1 3# \5|start_bit~1_combout\ $end
$var wire 1 4# \5|start_bit~q\ $end
$var wire 1 5# \5|data[3]~1_combout\ $end
$var wire 1 6# \5|tmp[7]~6_combout\ $end
$var wire 1 7# \5|stop_bit~0_combout\ $end
$var wire 1 8# \5|stop_bit~q\ $end
$var wire 1 9# \5|data[3]~2_combout\ $end
$var wire 1 :# \5|data[3]~3_combout\ $end
$var wire 1 ;# \5|tmp[6]~17_combout\ $end
$var wire 1 <# \5|Equal11~2_combout\ $end
$var wire 1 =# \5|tmp[1]~7_combout\ $end
$var wire 1 ># \5|tmp[6]~8_combout\ $end
$var wire 1 ?# \5|tmp[2]~9_combout\ $end
$var wire 1 @# \5|tmp[5]~10_combout\ $end
$var wire 1 A# \5|tmp[3]~11_combout\ $end
$var wire 1 B# \inst5|Mux0~0_combout\ $end
$var wire 1 C# \inst5|Mux1~0_combout\ $end
$var wire 1 D# \inst5|Mux2~0_combout\ $end
$var wire 1 E# \inst5|Mux3~0_combout\ $end
$var wire 1 F# \inst5|Mux4~0_combout\ $end
$var wire 1 G# \inst5|Mux5~0_combout\ $end
$var wire 1 H# \inst5|Mux6~0_combout\ $end
$var wire 1 I# \5|tmp[4]~12_combout\ $end
$var wire 1 J# \5|tmp[4]~13_combout\ $end
$var wire 1 K# \5|tmp[5]~14_combout\ $end
$var wire 1 L# \5|tmp[6]~15_combout\ $end
$var wire 1 M# \5|tmp[7]~16_combout\ $end
$var wire 1 N# \inst4|Mux0~0_combout\ $end
$var wire 1 O# \inst4|Mux1~0_combout\ $end
$var wire 1 P# \inst4|Mux2~0_combout\ $end
$var wire 1 Q# \inst4|Mux3~0_combout\ $end
$var wire 1 R# \inst4|Mux4~0_combout\ $end
$var wire 1 S# \inst4|Mux5~0_combout\ $end
$var wire 1 T# \inst4|Mux6~0_combout\ $end
$var wire 1 U# \inst|cnt\ [7] $end
$var wire 1 V# \inst|cnt\ [6] $end
$var wire 1 W# \inst|cnt\ [5] $end
$var wire 1 X# \inst|cnt\ [4] $end
$var wire 1 Y# \inst|cnt\ [3] $end
$var wire 1 Z# \inst|cnt\ [2] $end
$var wire 1 [# \inst|cnt\ [1] $end
$var wire 1 \# \inst|cnt\ [0] $end
$var wire 1 ]# \5|cnt\ [7] $end
$var wire 1 ^# \5|cnt\ [6] $end
$var wire 1 _# \5|cnt\ [5] $end
$var wire 1 `# \5|cnt\ [4] $end
$var wire 1 a# \5|cnt\ [3] $end
$var wire 1 b# \5|cnt\ [2] $end
$var wire 1 c# \5|cnt\ [1] $end
$var wire 1 d# \5|cnt\ [0] $end
$var wire 1 e# \3|cnt\ [7] $end
$var wire 1 f# \3|cnt\ [6] $end
$var wire 1 g# \3|cnt\ [5] $end
$var wire 1 h# \3|cnt\ [4] $end
$var wire 1 i# \3|cnt\ [3] $end
$var wire 1 j# \3|cnt\ [2] $end
$var wire 1 k# \3|cnt\ [1] $end
$var wire 1 l# \3|cnt\ [0] $end
$var wire 1 m# \5|data\ [7] $end
$var wire 1 n# \5|data\ [6] $end
$var wire 1 o# \5|data\ [5] $end
$var wire 1 p# \5|data\ [4] $end
$var wire 1 q# \5|data\ [3] $end
$var wire 1 r# \5|data\ [2] $end
$var wire 1 s# \5|data\ [1] $end
$var wire 1 t# \5|data\ [0] $end
$var wire 1 u# \inst7|count\ [25] $end
$var wire 1 v# \inst7|count\ [24] $end
$var wire 1 w# \inst7|count\ [23] $end
$var wire 1 x# \inst7|count\ [22] $end
$var wire 1 y# \inst7|count\ [21] $end
$var wire 1 z# \inst7|count\ [20] $end
$var wire 1 {# \inst7|count\ [19] $end
$var wire 1 |# \inst7|count\ [18] $end
$var wire 1 }# \inst7|count\ [17] $end
$var wire 1 ~# \inst7|count\ [16] $end
$var wire 1 !$ \inst7|count\ [15] $end
$var wire 1 "$ \inst7|count\ [14] $end
$var wire 1 #$ \inst7|count\ [13] $end
$var wire 1 $$ \inst7|count\ [12] $end
$var wire 1 %$ \inst7|count\ [11] $end
$var wire 1 &$ \inst7|count\ [10] $end
$var wire 1 '$ \inst7|count\ [9] $end
$var wire 1 ($ \inst7|count\ [8] $end
$var wire 1 )$ \inst7|count\ [7] $end
$var wire 1 *$ \inst7|count\ [6] $end
$var wire 1 +$ \inst7|count\ [5] $end
$var wire 1 ,$ \inst7|count\ [4] $end
$var wire 1 -$ \inst7|count\ [3] $end
$var wire 1 .$ \inst7|count\ [2] $end
$var wire 1 /$ \inst7|count\ [1] $end
$var wire 1 0$ \inst7|count\ [0] $end
$var wire 1 1$ \inst9|count\ [3] $end
$var wire 1 2$ \inst9|count\ [2] $end
$var wire 1 3$ \inst9|count\ [1] $end
$var wire 1 4$ \inst9|count\ [0] $end
$var wire 1 5$ \5|tmp\ [7] $end
$var wire 1 6$ \5|tmp\ [6] $end
$var wire 1 7$ \5|tmp\ [5] $end
$var wire 1 8$ \5|tmp\ [4] $end
$var wire 1 9$ \5|tmp\ [3] $end
$var wire 1 :$ \5|tmp\ [2] $end
$var wire 1 ;$ \5|tmp\ [1] $end
$var wire 1 <$ \5|tmp\ [0] $end
$var wire 1 =$ \inst|ALT_INV_process_0~0_combout\ $end
$var wire 1 >$ \inst4|ALT_INV_Mux6~0_combout\ $end
$var wire 1 ?$ \inst5|ALT_INV_Mux6~0_combout\ $end
$var wire 1 @$ \inst2|ALT_INV_Mux6~0_combout\ $end
$var wire 1 A$ \inst1|ALT_INV_Mux6~0_combout\ $end
$var wire 1 B$ \inst9|ALT_INV_pulse~q\ $end
$var wire 1 C$ \inst|ALT_INV_so~q\ $end
$var wire 1 D$ \ALT_INV_esp_tx~input_o\ $end
$var wire 1 E$ \5|ALT_INV_Equal11~1_combout\ $end
$upscope $end
$upscope $end
$enddefinitions $end
#0
$dumpvars
0!
0"
1+
x,
1;
0J
1K
xL
1M
1N
1O
1P
1Q
1R
1S
0T
0]
1^
xt
1|
0}
1~
x!!
x"!
x#!
x$!
x%!
x&!
x'!
x(!
x)!
x*!
x+!
x,!
x-!
x.!
0/!
00!
01!
02!
03!
04!
15!
06!
07!
08!
09!
0:!
0;!
1<!
0=!
1>!
0?!
0@!
1A!
0B!
0C!
0D!
1E!
0F!
1G!
0H!
0I!
1J!
0K!
0L!
0M!
0N!
0O!
0P!
1Q!
1R!
0S!
0T!
1U!
0V!
0W!
0X!
1Y!
0Z!
0[!
0\!
1]!
0^!
0_!
0`!
0a!
1b!
0c!
0d!
0e!
1f!
0g!
0h!
0i!
1j!
0k!
0l!
0m!
0n!
0o!
0p!
0q!
0r!
1s!
0t!
0u!
0v!
0w!
0x!
0y!
0z!
1{!
0|!
0}!
0~!
0!"
1""
0#"
0$"
0%"
0&"
0'"
1("
0)"
0*"
0+"
0,"
0-"
1."
0/"
00"
01"
02"
03"
04"
15"
06"
07"
08"
09"
0:"
0;"
0<"
0="
0>"
1?"
0@"
0A"
0B"
0C"
1D"
0E"
0F"
0G"
1H"
0I"
0J"
0K"
1L"
0M"
0N"
0O"
0P"
xQ"
xR"
xS"
xT"
xU"
0V"
0W"
xX"
xY"
0Z"
x["
x\"
0]"
0^"
1_"
0`"
1a"
0b"
1c"
0d"
0e"
0f"
0g"
xh"
xi"
xj"
xk"
xl"
xm"
xn"
xo"
xp"
xq"
xr"
xs"
xt"
xu"
xv"
1w"
1x"
0y"
0z"
0{"
0|"
0}"
1~"
0!#
0"#
0##
0$#
1%#
0&#
0'#
0(#
1)#
0*#
0+#
0,#
1-#
0.#
0/#
00#
01#
02#
03#
04#
05#
06#
07#
08#
09#
0:#
0;#
0<#
0=#
0>#
0?#
0@#
0A#
0B#
0C#
0D#
0E#
0F#
0G#
0H#
0I#
0J#
0K#
0L#
0M#
0N#
0O#
0P#
0Q#
0R#
0S#
0T#
1=$
1>$
1?$
x@$
xA$
1B$
1C$
xD$
1E$
xU
xV
xW
xX
xY
xZ
x[
x\
x_
x`
xa
xb
xc
xd
xe
xf
xg
xh
xi
xj
xk
xl
0m
0n
0o
0p
0q
0r
1s
0u
0v
0w
0x
0y
0z
1{
0U#
0V#
0W#
0X#
0Y#
0Z#
0[#
0\#
0]#
0^#
0_#
0`#
0a#
0b#
0c#
0d#
0e#
0f#
0g#
0h#
0i#
0j#
0k#
0l#
0m#
0n#
0o#
0p#
0q#
0r#
0s#
0t#
0u#
0v#
0w#
0x#
0y#
0z#
0{#
0|#
0}#
0~#
0!$
0"$
0#$
0$$
0%$
0&$
0'$
0($
0)$
0*$
0+$
0,$
0-$
0.$
0/$
00$
01$
02$
03$
04$
05$
06$
07$
08$
09$
0:$
0;$
0<$
x#
x$
x%
x&
x'
x(
x)
x*
x-
x.
x/
x0
x1
x2
x3
x4
x5
x6
x7
x8
x9
x:
0<
0=
0>
0?
0@
0A
1B
0C
0D
0E
0F
0G
0H
1I
$end
#5000
1"
1T
1=!
1l#
10$
14$
13$
0a"
0R!
1S!
0>!
1?!
1@!
1T!
#10000
0"
0T
0=!
#15000
1"
1T
1=!
0l#
1k#
00$
1/$
04$
1a"
0c"
1d"
0T!
0U!
1R!
0S!
0@!
0A!
0G!
1>!
0?!
1@!
1A!
1B!
1T!
1U!
1V!
0V!
0B!
#20000
0"
0T
0=!
#25000
1"
1T
1=!
1l#
10$
14$
03$
12$
0a"
0R!
1S!
0>!
1?!
0@!
0A!
0T!
0U!
1V!
1B!
#30000
0"
0T
0=!
#35000
1"
1T
1=!
0l#
0k#
1j#
00$
0/$
1.$
04$
1a"
1c"
0V!
1W!
1T!
1U!
1R!
0S!
0B!
1C!
1@!
1A!
1>!
0?!
0@!
1B!
0C!
1D!
0T!
1V!
0W!
1X!
0X!
0D!
#40000
0"
0T
0=!
#45000
1"
1T
1=!
1l#
10$
14$
13$
0a"
0R!
1S!
0>!
1?!
1@!
1T!
#50000
0"
0T
0=!
#55000
1"
1T
1=!
0l#
1k#
00$
1/$
04$
1a"
1b"
0c"
0d"
0T!
0U!
1R!
0S!
0@!
0A!
1>!
0?!
1@!
1A!
0B!
1C!
1T!
1U!
0V!
1W!
1X!
1V!
0W!
1D!
1B!
0C!
0D!
0X!
#60000
0"
0T
0=!
#65000
1"
1T
1=!
1l#
10$
14$
11$
03$
02$
1f"
0a"
1e"
0R!
1S!
0>!
1?!
0@!
0A!
0T!
0U!
0f"
0V!
1W!
0B!
1C!
1D!
1X!
#70000
0"
0T
0=!
#75000
1"
1T
1=!
0l#
0k#
0j#
1i#
00$
0/$
0.$
1-$
04$
1a"
1c"
0e"
0X!
0Y!
1V!
0W!
1T!
1U!
1R!
0S!
0D!
0E!
1B!
0C!
1@!
1A!
1>!
0?!
0@!
0B!
1D!
1E!
1F!
0T!
0V!
1X!
1Y!
1Z!
1f"
0Z!
0F!
#80000
0"
0T
0=!
#85000
1"
1T
1=!
1l#
10$
14$
13$
1g"
0B$
0a"
0b"
0c"
0R!
1S!
0>!
1?!
0~
1@!
1T!
0^
0;
#90000
0"
0T
0=!
#95000
1"
1T
1=!
0l#
1k#
00$
1/$
04$
01$
03$
0f"
1a"
1c"
0T!
0U!
1R!
0S!
0@!
0A!
1>!
0?!
1@!
1A!
1B!
1T!
1U!
1V!
0V!
0B!
#100000
0"
0T
0=!
#105000
1"
1T
1=!
1l#
10$
14$
13$
0g"
1B$
0a"
0R!
1S!
0>!
1?!
1~
0@!
0A!
0T!
0U!
1^
1;
1V!
1B!
#110000
0"
0T
0=!
#115000
1"
1T
1=!
0l#
0k#
1j#
00$
0/$
1.$
04$
1a"
0c"
1d"
0V!
1W!
1T!
1U!
1R!
0S!
0B!
1C!
1@!
1A!
1>!
0?!
0@!
1B!
0C!
0D!
0E!
0T!
1V!
0W!
0X!
0Y!
1Z!
1X!
1Y!
1F!
1D!
1E!
0F!
0Z!
#120000
0"
0T
0=!
#125000
1"
1T
1=!
1l#
10$
14$
03$
12$
0a"
0R!
1S!
0>!
1?!
1@!
1T!
#130000
0"
0T
0=!
#135000
1"
1T
1=!
0l#
1k#
00$
1/$
04$
1a"
1c"
0T!
0U!
1R!
0S!
0@!
0A!
1>!
0?!
1@!
1A!
0B!
1C!
1T!
1U!
0V!
1W!
0X!
0Y!
1V!
0W!
0D!
0E!
1B!
0C!
1D!
1E!
1F!
1X!
1Y!
1Z!
0Z!
0F!
#140000
0"
0T
0=!
#145000
1"
1T
1=!
1l#
10$
14$
13$
0a"
0R!
1S!
0>!
1?!
0@!
0A!
0T!
0U!
0V!
1W!
0B!
1C!
0D!
0E!
0X!
0Y!
1Z!
1F!
#150000
0"
0T
0=!
#155000
1"
1T
1=!
0l#
0k#
0j#
0i#
1h#
00$
0/$
0.$
0-$
1,$
04$
1a"
1b"
0c"
0d"
0Z!
1[!
1X!
1Y!
1V!
0W!
1T!
1U!
1R!
0S!
0F!
1H!
1D!
1E!
1B!
0C!
1@!
1A!
1>!
0?!
0@!
0B!
0D!
1F!
0H!
1I!
0T!
0V!
0X!
1Z!
0[!
1\!
0\!
0I!
#160000
0"
0T
0=!
#165000
1"
1T
1=!
1l#
10$
14$
11$
03$
02$
1f"
0a"
1e"
0R!
1S!
0>!
1?!
1@!
1T!
0f"
#170000
0"
0T
0=!
#175000
1"
1T
1=!
0l#
1k#
00$
1/$
04$
1a"
1c"
0e"
0T!
0U!
1R!
0S!
0@!
0A!
1>!
0?!
1@!
1A!
1B!
1T!
1U!
1V!
1f"
0V!
0B!
#180000
0"
0T
0=!
#185000
1"
1T
1=!
1l#
10$
14$
13$
1g"
0B$
0a"
0b"
0c"
0R!
1S!
0>!
1?!
0~
0@!
0A!
0T!
0U!
0^
0;
1V!
1B!
#190000
0"
0T
0=!
#195000
1"
1T
1=!
0l#
0k#
1j#
00$
0/$
1.$
04$
01$
03$
0f"
1a"
1c"
0V!
1W!
1T!
1U!
1R!
0S!
0B!
1C!
1@!
1A!
1>!
0?!
0@!
1B!
0C!
1D!
0T!
1V!
0W!
1X!
0X!
0D!
#200000
0"
0T
0=!
#205000
1"
1T
1=!
1l#
10$
14$
13$
0g"
1B$
0a"
0R!
1S!
0>!
1?!
1~
1@!
1T!
1^
1;
#210000
0"
0T
0=!
#215000
1"
1T
1=!
0l#
1k#
00$
1/$
04$
1a"
0c"
1d"
0T!
0U!
1R!
0S!
0@!
0A!
1>!
0?!
1@!
1A!
0B!
1C!
1T!
1U!
0V!
1W!
1X!
1V!
0W!
1D!
1B!
0C!
0D!
0X!
#220000
0"
0T
0=!
#225000
1"
1T
1=!
1l#
10$
14$
03$
12$
0a"
0R!
1S!
0>!
1?!
0@!
0A!
0T!
0U!
0V!
1W!
0B!
1C!
1D!
1X!
#230000
0"
0T
0=!
#235000
1"
1T
1=!
0l#
0k#
0j#
1i#
00$
0/$
0.$
1-$
04$
1a"
1c"
0X!
0Y!
1V!
0W!
1T!
1U!
1R!
0S!
0D!
0E!
1B!
0C!
1@!
1A!
1>!
0?!
0@!
0B!
1D!
1E!
0F!
1H!
0T!
0V!
1X!
1Y!
0Z!
1[!
1\!
1Z!
0[!
1I!
1F!
0H!
0I!
0\!
#240000
0"
0T
0=!
#245000
1"
1T
1=!
1l#
10$
14$
13$
0a"
0R!
1S!
0>!
1?!
1@!
1T!
#250000
0"
0T
0=!
