Altera Tutorial/simulation/qsim/Altera_Tutorial.msim.vcd
$comment
	File created using the following command:
		vcd file Altera_Tutorial.msim.vcd -direction
$end
$date
	Fri Oct 21 13:01:13 2022
$end
$version
	ModelSim Version 10.5b
$end
$timescale
	1ps
$end

$scope module pwm_ctrl_example_vhd_vec_tst $end
$var wire 1 ! LwheelB $end
$var wire 1 " LwheelF $end
$var wire 1 # Ma0 $end
$var wire 1 $ Ma1 $end
$var wire 1 % Mb0 $end
$var wire 1 & Mb1 $end
$var wire 1 ' PWM_Motor_1KHz $end
$var wire 1 ( RwheelB $end
$var wire 1 ) RwheelF $end

$scope module i1 $end
$var wire 1 * gnd $end
$var wire 1 + vcc $end
$var wire 1 , unknown $end
$var wire 1 - devoe $end
$var wire 1 . devclrn $end
$var wire 1 / devpor $end
$var wire 1 0 ww_devoe $end
$var wire 1 1 ww_devclrn $end
$var wire 1 2 ww_devpor $end
$var wire 1 3 ww_RwheelF $end
$var wire 1 4 ww_PWM_Motor_1KHz $end
$var wire 1 5 ww_Ma0 $end
$var wire 1 6 ww_Ma1 $end
$var wire 1 7 ww_Mb0 $end
$var wire 1 8 ww_Mb1 $end
$var wire 1 9 ww_LwheelF $end
$var wire 1 : ww_LwheelB $end
$var wire 1 ; ww_RwheelB $end
$var wire 1 < \RwheelF~output_o\ $end
$var wire 1 = \LwheelF~output_o\ $end
$var wire 1 > \LwheelB~output_o\ $end
$var wire 1 ? \RwheelB~output_o\ $end
$var wire 1 @ \PWM_Motor_1KHz~input_o\ $end
$var wire 1 A \Mb1~input_o\ $end
$var wire 1 B \Ma1~input_o\ $end
$var wire 1 C \Ma0~input_o\ $end
$var wire 1 D \inst|RwheelF~0_combout\ $end
$var wire 1 E \Mb0~input_o\ $end
$var wire 1 F \inst|RwheelF~1_combout\ $end
$var wire 1 G \inst|RwheelF~2_combout\ $end
$var wire 1 H \inst|RwheelF~combout\ $end
$var wire 1 I \inst|LwheelF~0_combout\ $end
$var wire 1 J \inst|LwheelF~combout\ $end
$var wire 1 K \inst|LwheelB~0_combout\ $end
$var wire 1 L \inst|LwheelB~1_combout\ $end
$var wire 1 M \inst|RwheelF~3_combout\ $end
$var wire 1 N \inst|LwheelB~combout\ $end
$var wire 1 O \inst|RwheelB~0_combout\ $end
$var wire 1 P \inst|RwheelF~4_combout\ $end
$var wire 1 Q \inst|RwheelB~combout\ $end
$upscope $end
$upscope $end
$enddefinitions $end
#0
$dumpvars
0!
0"
0#
0$
0%
0&
0'
0(
0)
0*
1+
x,
1-
1.
1/
10
11
12
03
04
05
06
07
08
09
0:
0;
0<
0=
0>
0?
0@
0A
0B
0C
0D
0E
0F
1G
0H
0I
0J
0K
0L
1M
0N
0O
1P
0Q
$end
#4000
1'
14
1@
1K
#20000
0'
1&
04
18
1A
0@
0K
0G
0M
0P
#24000
1'
14
1@
1K
#40000
0'
0&
1%
04
08
17
1E
0A
0@
0K
#44000
1'
14
1@
1K
#60000
0'
1&
1$
04
18
16
1B
1A
0@
0K
#64000
1'
14
1@
1D
1I
#80000
0'
0&
0%
1#
04
08
07
15
1C
0E
0A
0@
1F
0D
0I
0F
#84000
1'
14
1@
#100000
0'
1&
04
18
1A
0@
#104000
1'
14
1@
#120000
0'
0&
1%
0$
04
08
17
06
0B
1E
0A
0@
1G
1M
1P
#124000
1'
14
1@
1K
1O
1Q
1L
1?
1N
1;
1>
1(
1:
1!
#140000
0'
1&
04
18
1A
0@
0K
0O
0G
0M
0P
0L
#144000
1'
14
1@
1D
1K
1O
1L
#160000
0'
0&
0%
0#
04
08
07
05
0C
0E
0A
0@
0K
1F
0D
1G
0L
1M
0O
1P
0Q
0N
0F
1H
1<
0>
0?
0H
13
0:
0;
0<
1)
0!
0(
03
0)
#164000
1'
14
1@
1K
#180000
0'
1&
1$
04
18
16
1B
1A
0@
0K
#184000
1'
14
1@
1D
1I
1J
1F
1=
1H
19
1<
1"
13
1)
#200000
0'
0&
1%
04
08
17
1E
0A
0@
0I
0D
0F
0M
0H
0J
0=
0<
09
03
0"
0)
#204000
1'
14
1@
1D
1I
1J
1=
19
1"
#220000
0'
1&
04
18
1A
0@
0I
0D
0G
0P
#224000
1'
14
1@
1D
1I
#240000
0'
0&
0%
0$
1#
04
08
07
06
15
1C
0B
0E
0A
0@
1F
0D
0I
0F
#244000
1'
14
1@
1K
1O
1L
#260000
0'
1&
04
18
1A
0@
0K
0O
1G
0L
1M
0J
0=
09
0"
#264000
1'
14
1@
1D
1K
1O
1F
1H
1<
13
1)
#280000
0'
0&
1%
04
08
17
1E
0A
0@
0K
0O
0D
0F
1L
1P
1N
0H
0L
0<
1>
0N
03
1:
0>
0)
1!
0:
0!
#284000
1'
14
1@
1K
1O
1Q
1L
1?
1N
1;
1>
1(
1:
1!
#300000
0'
1&
1$
04
18
16
1B
1A
0@
0K
0O
0Q
0L
0?
0N
0;
0>
0(
0:
0!
#304000
1'
14
1@
#320000
0'
0&
0%
0#
04
08
07
05
0C
0E
0A
0@
0G
0M
0P
#324000
1'
14
1@
1D
1I
1F
#340000
0'
1&
04
18
1A
0@
0I
0D
1G
1M
1P
1H
0F
1<
0H
13
0<
1)
03
0)
#344000
1'
14
1@
1D
1I
1J
1F
1=
1H
19
1<
1"
13
1)
#360000
0'
0&
1%
0$
04
08
17
06
0B
1E
0A
0@
0F
0D
0G
0I
0M
0P
#364000
1'
14
1@
1K
#380000
0'
1&
04
18
1A
0@
0K
#384000
1'
14
1@
1K
#400000
0'
0&
0%
1#
04
08
07
15
1C
0E
0A
0@
0K
1L
0L
#404000
1'
14
1@
1K
1O
1L
#420000
0'
1&
1$
04
18
16
1B
1A
0@
0L
0K
0O
#424000
1'
14
1@
#440000
0'
0&
1%
04
08
17
1E
0A
0@
#444000
1'
14
1@
#460000
0'
1&
04
18
1A
0@
1G
1M
1P
0H
0J
0=
0<
09
03
0"
0)
#464000
1'
14
1@
#480000
0'
0&
0%
0$
0#
04
08
07
06
05
0C
0B
0E
0A
0@
#484000
1'
14
1@
1K
#500000
0'
1&
04
18
1A
0@
0K
0G
0M
0P
#504000
1'
14
1@
1K
#520000
0'
0&
1%
04
08
17
1E
0A
0@
0K
#524000
1'
14
1@
1K
#540000
0'
1&
1$
04
18
16
1B
1A
0@
0K
#544000
1'
14
1@
1D
1I
#560000
0'
0&
0%
1#
04
08
07
15
1C
0E
0A
0@
1F
0D
0I
0F
#564000
1'
14
1@
#580000
0'
1&
04
18
1A
0@
#584000
1'
14
1@
#600000
0'
0&
1%
0$
04
08
17
06
0B
1E
0A
0@
1G
1M
1P
#604000
1'
14
1@
1K
1O
1Q
1L
1?
1N
1;
1>
1(
1:
1!
#620000
0'
1&
04
18
1A
0@
0K
0O
0G
0M
0P
0L
#624000
1'
14
1@
1D
1K
1O
1L
#640000
0'
0&
0%
0#
04
08
07
05
0C
0E
0A
0@
0K
1F
0D
1G
0L
1M
0O
1P
0Q
0N
0F
1H
1<
0>
0?
0H
13
0:
0;
0<
1)
0!
0(
03
0)
#644000
1'
14
1@
1K
#660000
0'
1&
1$
04
18
16
1B
1A
0@
0K
#664000
1'
14
1@
1D
1I
1J
1F
1=
1H
19
1<
1"
13
1)
#680000
0'
0&
1%
04
08
17
1E
0A
0@
0I
0D
0F
0M
0H
0J
0=
0<
09
03
0"
0)
#684000
1'
14
1@
1D
1I
1J
1=
19
1"
#700000
0'
1&
04
18
1A
0@
0I
0D
0G
0P
#704000
1'
14
1@
1D
1I
#720000
0'
0&
0%
0$
1#
04
08
07
06
15
1C
0B
0E
0A
0@
1F
0D
0I
0F
#724000
1'
14
1@
1K
1O
1L
#740000
0'
1&
04
18
1A
0@
0K
0O
1G
0L
1M
0J
0=
09
0"
#744000
1'
14
1@
1D
1K
1O
1F
1H
1<
13
1)
#760000
0'
0&
1%
04
08
17
1E
0A
0@
0K
0O
0D
0F
1L
1P
1N
0H
0L
0<
1>
0N
03
1:
0>
0)
1!
0:
0!
#764000
1'
14
1@
1K
1O
1Q
1L
1?
1N
1;
1>
1(
1:
1!
#780000
0'
1&
1$
04
18
16
1B
1A
0@
0K
0O
0Q
0L
0?
0N
0;
0>
0(
0:
0!
#784000
1'
14
1@
#800000
0'
0&
0%
0#
04
08
07
05
0C
0E
0A
0@
0G
0M
0P
#804000
1'
14
1@
1D
1I
1F
#820000
0'
1&
04
18
1A
0@
0I
0D
1G
1M
1P
1H
0F
1<
0H
13
0<
1)
03
0)
#824000
1'
14
1@
1D
1I
1J
1F
1=
1H
19
1<
1"
13
1)
#840000
0'
0&
1%
0$
04
08
17
06
0B
1E
0A
0@
0F
0D
0G
0I
0M
0P
#844000
1'
14
1@
1K
#860000
0'
1&
04
18
1A
0@
0K
#864000
1'
14
1@
1K
#880000
0'
0&
0%
1#
04
08
07
15
1C
0E
0A
0@
0K
1L
0L
#884000
1'
14
1@
1K
1O
1L
#900000
0'
1&
1$
04
18
16
1B
1A
0@
0L
0K
0O
#904000
1'
14
1@
#920000
0'
0&
1%
04
08
17
1E
0A
0@
#924000
1'
14
1@
#940000
0'
1&
04
18
1A
0@
1G
1M
1P
0H
0J
0=
0<
09
03
0"
0)
#944000
1'
14
1@
#960000
0'
0&
0%
0$
0#
04
08
07
06
05
0C
0B
0E
0A
0@
#964000
1'
14
1@
1K
#980000
0'
1&
04
18
1A
0@
0K
0G
0M
0P
#984000
1'
14
1@
1K
